(kicad_sch (version 20211123) (generator eeschema)

  (uuid 4831966c-bb32-4bc8-a400-0382a02ffa1c)

  (paper "A4")

  (lib_symbols
    (symbol "Connector:Conn_01x01_Female" (pin_names (offset 1.016) hide) (in_bom yes) (on_board yes)
      (property "Reference" "J" (id 0) (at 0 2.54 0)
        (effects (font (size 1.27 1.27)))
      )
      (property "Value" "Conn_01x01_Female" (id 1) (at 0 -2.54 0)
        (effects (font (size 1.27 1.27)))
      )
      (property "Footprint" "" (id 2) (at 0 0 0)
        (effects (font (size 1.27 1.27)) hide)
      )
      (property "Datasheet" "~" (id 3) (at 0 0 0)
        (effects (font (size 1.27 1.27)) hide)
      )
      (property "ki_keywords" "connector" (id 4) (at 0 0 0)
        (effects (font (size 1.27 1.27)) hide)
      )
      (property "ki_description" "Generic connector, single row, 01x01, script generated (kicad-library-utils/schlib/autogen/connector/)" (id 5) (at 0 0 0)
        (effects (font (size 1.27 1.27)) hide)
      )
      (property "ki_fp_filters" "Connector*:*" (id 6) (at 0 0 0)
        (effects (font (size 1.27 1.27)) hide)
      )
      (symbol "Conn_01x01_Female_1_1"
        (polyline
          (pts
            (xy -1.27 0)
            (xy -0.508 0)
          )
          (stroke (width 0.1524) (type default) (color 0 0 0 0))
          (fill (type none))
        )
        (arc (start 0 0.508) (mid -0.508 0) (end 0 -0.508)
          (stroke (width 0.1524) (type default) (color 0 0 0 0))
          (fill (type none))
        )
        (pin passive line (at -5.08 0 0) (length 3.81)
          (name "Pin_1" (effects (font (size 1.27 1.27))))
          (number "1" (effects (font (size 1.27 1.27))))
        )
      )
    )
    (symbol "Connector_Generic:Conn_01x04" (pin_names (offset 1.016) hide) (in_bom yes) (on_board yes)
      (property "Reference" "J" (id 0) (at 0 5.08 0)
        (effects (font (size 1.27 1.27)))
      )
      (property "Value" "Conn_01x04" (id 1) (at 0 -7.62 0)
        (effects (font (size 1.27 1.27)))
      )
      (property "Footprint" "" (id 2) (at 0 0 0)
        (effects (font (size 1.27 1.27)) hide)
      )
      (property "Datasheet" "~" (id 3) (at 0 0 0)
        (effects (font (size 1.27 1.27)) hide)
      )
      (property "ki_keywords" "connector" (id 4) (at 0 0 0)
        (effects (font (size 1.27 1.27)) hide)
      )
      (property "ki_description" "Generic connector, single row, 01x04, script generated (kicad-library-utils/schlib/autogen/connector/)" (id 5) (at 0 0 0)
        (effects (font (size 1.27 1.27)) hide)
      )
      (property "ki_fp_filters" "Connector*:*_1x??_*" (id 6) (at 0 0 0)
        (effects (font (size 1.27 1.27)) hide)
      )
      (symbol "Conn_01x04_1_1"
        (rectangle (start -1.27 -4.953) (end 0 -5.207)
          (stroke (width 0.1524) (type default) (color 0 0 0 0))
          (fill (type none))
        )
        (rectangle (start -1.27 -2.413) (end 0 -2.667)
          (stroke (width 0.1524) (type default) (color 0 0 0 0))
          (fill (type none))
        )
        (rectangle (start -1.27 0.127) (end 0 -0.127)
          (stroke (width 0.1524) (type default) (color 0 0 0 0))
          (fill (type none))
        )
        (rectangle (start -1.27 2.667) (end 0 2.413)
          (stroke (width 0.1524) (type default) (color 0 0 0 0))
          (fill (type none))
        )
        (rectangle (start -1.27 3.81) (end 1.27 -6.35)
          (stroke (width 0.254) (type default) (color 0 0 0 0))
          (fill (type background))
        )
        (pin passive line (at -5.08 2.54 0) (length 3.81)
          (name "Pin_1" (effects (font (size 1.27 1.27))))
          (number "1" (effects (font (size 1.27 1.27))))
        )
        (pin passive line (at -5.08 0 0) (length 3.81)
          (name "Pin_2" (effects (font (size 1.27 1.27))))
          (number "2" (effects (font (size 1.27 1.27))))
        )
        (pin passive line (at -5.08 -2.54 0) (length 3.81)
          (name "Pin_3" (effects (font (size 1.27 1.27))))
          (number "3" (effects (font (size 1.27 1.27))))
        )
        (pin passive line (at -5.08 -5.08 0) (length 3.81)
          (name "Pin_4" (effects (font (size 1.27 1.27))))
          (number "4" (effects (font (size 1.27 1.27))))
        )
      )
    )
    (symbol "Device:R" (pin_numbers hide) (pin_names (offset 0)) (in_bom yes) (on_board yes)
      (property "Reference" "R" (id 0) (at 2.032 0 90)
        (effects (font (size 1.27 1.27)))
      )
      (property "Value" "R" (id 1) (at 0 0 90)
        (effects (font (size 1.27 1.27)))
      )
      (property "Footprint" "" (id 2) (at -1.778 0 90)
        (effects (font (size 1.27 1.27)) hide)
      )
      (property "Datasheet" "~" (id 3) (at 0 0 0)
        (effects (font (size 1.27 1.27)) hide)
      )
      (property "ki_keywords" "R res resistor" (id 4) (at 0 0 0)
        (effects (font (size 1.27 1.27)) hide)
      )
      (property "ki_description" "Resistor" (id 5) (at 0 0 0)
        (effects (font (size 1.27 1.27)) hide)
      )
      (property "ki_fp_filters" "R_*" (id 6) (at 0 0 0)
        (effects (font (size 1.27 1.27)) hide)
      )
      (symbol "R_0_1"
        (rectangle (start -1.016 -2.54) (end 1.016 2.54)
          (stroke (width 0.254) (type default) (color 0 0 0 0))
          (fill (type none))
        )
      )
      (symbol "R_1_1"
        (pin passive line (at 0 3.81 270) (length 1.27)
          (name "~" (effects (font (size 1.27 1.27))))
          (number "1" (effects (font (size 1.27 1.27))))
        )
        (pin passive line (at 0 -3.81 90) (length 1.27)
          (name "~" (effects (font (size 1.27 1.27))))
          (number "2" (effects (font (size 1.27 1.27))))
        )
      )
    )
    (symbol "freza-rescue:7Segment-krokomer" (pin_names (offset 1.016)) (in_bom yes) (on_board yes)
      (property "Reference" "Seg" (id 0) (at 8.89 10.16 0)
        (effects (font (size 1.27 1.27)))
      )
      (property "Value" "7Segment-krokomer" (id 1) (at 8.89 13.97 0)
        (effects (font (size 1.27 1.27)))
      )
      (property "Footprint" "" (id 2) (at 0 -3.81 0)
        (effects (font (size 1.27 1.27)) hide)
      )
      (property "Datasheet" "" (id 3) (at 0 -3.81 0)
        (effects (font (size 1.27 1.27)) hide)
      )
      (symbol "7Segment-krokomer_0_1"
        (rectangle (start -13.97 24.13) (end 3.81 -1.27)
          (stroke (width 0) (type default) (color 0 0 0 0))
          (fill (type background))
        )
        (polyline
          (pts
            (xy -7.62 16.51)
            (xy -2.54 16.51)
            (xy -2.54 11.43)
            (xy -7.62 11.43)
            (xy -7.62 6.35)
            (xy -2.54 6.35)
            (xy -2.54 11.43)
            (xy -7.62 11.43)
            (xy -7.62 16.51)
          )
          (stroke (width 0.9906) (type default) (color 0 0 0 0))
          (fill (type none))
        )
      )
      (symbol "7Segment-krokomer_1_1"
        (pin input line (at -12.7 -3.81 90) (length 2.54)
          (name "e" (effects (font (size 1.27 1.27))))
          (number "1" (effects (font (size 1.27 1.27))))
        )
        (pin input line (at -12.7 26.67 270) (length 2.54)
          (name "g" (effects (font (size 1.27 1.27))))
          (number "10" (effects (font (size 1.27 1.27))))
        )
        (pin input line (at -8.89 -3.81 90) (length 2.54)
          (name "d" (effects (font (size 1.27 1.27))))
          (number "2" (effects (font (size 1.27 1.27))))
        )
        (pin input line (at -5.08 -3.81 90) (length 2.54)
          (name "com" (effects (font (size 1.27 1.27))))
          (number "3" (effects (font (size 1.27 1.27))))
        )
        (pin input line (at -1.27 -3.81 90) (length 2.54)
          (name "c" (effects (font (size 1.27 1.27))))
          (number "4" (effects (font (size 1.27 1.27))))
        )
        (pin input line (at 2.54 -3.81 90) (length 2.54)
          (name "dp" (effects (font (size 1.27 1.27))))
          (number "5" (effects (font (size 1.27 1.27))))
        )
        (pin input line (at 2.54 26.67 270) (length 2.54)
          (name "b" (effects (font (size 1.27 1.27))))
          (number "6" (effects (font (size 1.27 1.27))))
        )
        (pin input line (at -1.27 26.67 270) (length 2.54)
          (name "a" (effects (font (size 1.27 1.27))))
          (number "7" (effects (font (size 1.27 1.27))))
        )
        (pin input line (at -5.08 26.67 270) (length 2.54)
          (name "com" (effects (font (size 1.27 1.27))))
          (number "8" (effects (font (size 1.27 1.27))))
        )
        (pin input line (at -8.89 26.67 270) (length 2.54)
          (name "f" (effects (font (size 1.27 1.27))))
          (number "9" (effects (font (size 1.27 1.27))))
        )
      )
    )
    (symbol "freza-rescue:E147D-krokomer" (pin_names (offset 1.016)) (in_bom yes) (on_board yes)
      (property "Reference" "DEK" (id 0) (at -3.81 0 0)
        (effects (font (size 1.27 1.27)))
      )
      (property "Value" "E147D-krokomer" (id 1) (at -3.81 2.54 0)
        (effects (font (size 1.27 1.27)))
      )
      (property "Footprint" "" (id 2) (at -1.27 0 0)
        (effects (font (size 1.27 1.27)) hide)
      )
      (property "Datasheet" "" (id 3) (at -1.27 0 0)
        (effects (font (size 1.27 1.27)) hide)
      )
      (symbol "E147D-krokomer_0_1"
        (rectangle (start -13.97 16.51) (end 6.35 -16.51)
          (stroke (width 0) (type default) (color 0 0 0 0))
          (fill (type background))
        )
        (arc (start -6.35 16.51) (mid -3.81 13.97) (end -1.27 16.51)
          (stroke (width 0) (type default) (color 0 0 0 0))
          (fill (type none))
        )
        (rectangle (start 2.54 -16.51) (end 2.54 -16.51)
          (stroke (width 0) (type default) (color 0 0 0 0))
          (fill (type none))
        )
      )
      (symbol "E147D-krokomer_1_1"
        (pin input line (at -16.51 13.97 0) (length 2.54)
          (name "B" (effects (font (size 1.27 1.27))))
          (number "1" (effects (font (size 1.27 1.27))))
        )
        (pin output line (at 8.89 -8.89 180) (length 2.54)
          (name "~{Qd}" (effects (font (size 1.27 1.27))))
          (number "10" (effects (font (size 1.27 1.27))))
        )
        (pin output line (at 8.89 -5.08 180) (length 2.54)
          (name "~{Qc}" (effects (font (size 1.27 1.27))))
          (number "11" (effects (font (size 1.27 1.27))))
        )
        (pin output line (at 8.89 -1.27 180) (length 2.54)
          (name "~{Qb}" (effects (font (size 1.27 1.27))))
          (number "12" (effects (font (size 1.27 1.27))))
        )
        (pin output line (at 8.89 2.54 180) (length 2.54)
          (name "~{Qa}" (effects (font (size 1.27 1.27))))
          (number "13" (effects (font (size 1.27 1.27))))
        )
        (pin output line (at 8.89 6.35 180) (length 2.54)
          (name "~{Qg}" (effects (font (size 1.27 1.27))))
          (number "14" (effects (font (size 1.27 1.27))))
        )
        (pin output line (at 8.89 10.16 180) (length 2.54)
          (name "~{Qf}" (effects (font (size 1.27 1.27))))
          (number "15" (effects (font (size 1.27 1.27))))
        )
        (pin input line (at 8.89 13.97 180) (length 2.54)
          (name "Ucc" (effects (font (size 1.27 1.27))))
          (number "16" (effects (font (size 1.27 1.27))))
        )
        (pin input line (at -16.51 10.16 0) (length 2.54)
          (name "C" (effects (font (size 1.27 1.27))))
          (number "2" (effects (font (size 1.27 1.27))))
        )
        (pin input line (at -16.51 6.35 0) (length 2.54)
          (name "~{LT}" (effects (font (size 1.27 1.27))))
          (number "3" (effects (font (size 1.27 1.27))))
        )
        (pin input line (at -16.51 2.54 0) (length 2.54)
          (name "~{RBO}" (effects (font (size 1.27 1.27))))
          (number "4" (effects (font (size 1.27 1.27))))
        )
        (pin input line (at -16.51 -1.27 0) (length 2.54)
          (name "~{RBI}" (effects (font (size 1.27 1.27))))
          (number "5" (effects (font (size 1.27 1.27))))
        )
        (pin input line (at -16.51 -5.08 0) (length 2.54)
          (name "D" (effects (font (size 1.27 1.27))))
          (number "6" (effects (font (size 1.27 1.27))))
        )
        (pin input line (at -16.51 -8.89 0) (length 2.54)
          (name "A" (effects (font (size 1.27 1.27))))
          (number "7" (effects (font (size 1.27 1.27))))
        )
        (pin input line (at -16.51 -12.7 0) (length 2.54)
          (name "GND" (effects (font (size 1.27 1.27))))
          (number "8" (effects (font (size 1.27 1.27))))
        )
        (pin output line (at 8.89 -12.7 180) (length 2.54)
          (name "~{Qe}" (effects (font (size 1.27 1.27))))
          (number "9" (effects (font (size 1.27 1.27))))
        )
      )
    )
    (symbol "freza-rescue:SensorKrok-krokomer" (pin_names (offset 1.016)) (in_bom yes) (on_board yes)
      (property "Reference" "SensKrk" (id 0) (at 0 0 0)
        (effects (font (size 1.27 1.27)))
      )
      (property "Value" "SensorKrok-krokomer" (id 1) (at 0 0 0)
        (effects (font (size 1.27 1.27)))
      )
      (property "Footprint" "" (id 2) (at 0 0 0)
        (effects (font (size 1.27 1.27)) hide)
      )
      (property "Datasheet" "" (id 3) (at 0 0 0)
        (effects (font (size 1.27 1.27)) hide)
      )
      (symbol "SensorKrok-krokomer_0_1"
        (rectangle (start 10.16 7.62) (end 21.59 2.54)
          (stroke (width 0) (type default) (color 0 0 0 0))
          (fill (type background))
        )
        (circle (center 12.7 5.08) (radius 2.54)
          (stroke (width 0) (type default) (color 0 0 0 0))
          (fill (type outline))
        )
        (circle (center 19.05 5.08) (radius 2.54)
          (stroke (width 0) (type default) (color 0 0 0 0))
          (fill (type outline))
        )
      )
      (symbol "SensorKrok-krokomer_1_1"
        (pin input line (at 7.62 6.35 0) (length 2.54)
          (name "GND" (effects (font (size 1.27 1.27))))
          (number "1" (effects (font (size 1.27 1.27))))
        )
        (pin output line (at 7.62 3.81 0) (length 2.54)
          (name "OUT" (effects (font (size 1.27 1.27))))
          (number "2" (effects (font (size 1.27 1.27))))
        )
      )
    )
  )

  (junction (at 101.6 21.59) (diameter 0) (color 0 0 0 0)
    (uuid 03d88a85-11fd-47aa-954c-c318bb15294a)
  )
  (junction (at 73.66 92.71) (diameter 0) (color 0 0 0 0)
    (uuid c70d9ef3-bfeb-47e0-a1e1-9aeba3da7864)
  )
  (junction (at 73.66 110.49) (diameter 0) (color 0 0 0 0)
    (uuid cef6f603-8a0b-4dd0-af99-ebfbef7d1b4b)
  )
  (junction (at 127 104.14) (diameter 0) (color 0 0 0 0)
    (uuid ef8fe2ac-6a7f-4682-9418-b801a1b10a3b)
  )

  (wire (pts (xy 101.6 33.02) (xy 106.68 33.02))
    (stroke (width 0) (type default) (color 0 0 0 0))
    (uuid 03c52831-5dc5-43c5-a442-8d23643b46fb)
  )
  (wire (pts (xy 105.41 88.9) (xy 105.41 93.98))
    (stroke (width 0) (type default) (color 0 0 0 0))
    (uuid 03caada9-9e22-4e2d-9035-b15433dfbb17)
  )
  (wire (pts (xy 109.22 53.34) (xy 101.6 53.34))
    (stroke (width 0) (type default) (color 0 0 0 0))
    (uuid 08a7c925-7fae-4530-b0c9-120e185cb318)
  )
  (wire (pts (xy 101.6 36.83) (xy 107.95 36.83))
    (stroke (width 0) (type default) (color 0 0 0 0))
    (uuid 0a3cc030-c9dd-4d74-9d50-715ed2b361a2)
  )
  (wire (pts (xy 50.8 74.93) (xy 68.58 74.93))
    (stroke (width 0) (type default) (color 0 0 0 0))
    (uuid 0b21a65d-d20b-411e-920a-75c343ac5136)
  )
  (wire (pts (xy 50.8 72.39) (xy 68.58 72.39))
    (stroke (width 0) (type default) (color 0 0 0 0))
    (uuid 0f22151c-f260-4674-b486-4710a2c42a55)
  )
  (wire (pts (xy 106.68 16.51) (xy 106.68 21.59))
    (stroke (width 0) (type default) (color 0 0 0 0))
    (uuid 0f54db53-a272-4955-88fb-d7ab00657bb0)
  )
  (wire (pts (xy 123.19 101.6) (xy 123.19 97.79))
    (stroke (width 0) (type default) (color 0 0 0 0))
    (uuid 10109f84-4940-47f8-8640-91f185ac9bc1)
  )
  (wire (pts (xy 81.28 118.11) (xy 143.51 118.11))
    (stroke (width 0) (type default) (color 0 0 0 0))
    (uuid 120a7b0f-ddfd-4447-85c1-35665465acdb)
  )
  (wire (pts (xy 71.12 35.56) (xy 50.8 35.56))
    (stroke (width 0) (type default) (color 0 0 0 0))
    (uuid 127679a9-3981-4934-815e-896a4e3ff56e)
  )
  (wire (pts (xy 64.77 48.26) (xy 64.77 30.48))
    (stroke (width 0) (type default) (color 0 0 0 0))
    (uuid 128e34ce-eee7-477d-b905-a493e98db783)
  )
  (wire (pts (xy 53.34 118.11) (xy 68.58 118.11))
    (stroke (width 0) (type default) (color 0 0 0 0))
    (uuid 13475e15-f37c-4de8-857e-1722b0c39513)
  )
  (wire (pts (xy 101.6 48.26) (xy 111.76 48.26))
    (stroke (width 0) (type default) (color 0 0 0 0))
    (uuid 13abf99d-5265-4779-8973-e94370fd18ff)
  )
  (wire (pts (xy 59.69 67.31) (xy 59.69 85.09))
    (stroke (width 0) (type default) (color 0 0 0 0))
    (uuid 1831fb37-1c5d-42c4-b898-151be6fca9dc)
  )
  (wire (pts (xy 109.22 19.05) (xy 130.81 19.05))
    (stroke (width 0) (type default) (color 0 0 0 0))
    (uuid 1860e030-7a36-4298-b7fc-a16d48ab15ba)
  )
  (wire (pts (xy 101.6 21.59) (xy 105.41 21.59))
    (stroke (width 0) (type default) (color 0 0 0 0))
    (uuid 1a2f72d1-0b36-4610-afc4-4ad1660d5d3b)
  )
  (wire (pts (xy 127 57.15) (xy 127 64.77))
    (stroke (width 0) (type default) (color 0 0 0 0))
    (uuid 1f3003e6-dce5-420f-906b-3f1e92b67249)
  )
  (wire (pts (xy 119.38 57.15) (xy 119.38 60.96))
    (stroke (width 0) (type default) (color 0 0 0 0))
    (uuid 23bb2798-d93a-4696-a962-c305c4298a0c)
  )
  (wire (pts (xy 113.03 73.66) (xy 113.03 62.23))
    (stroke (width 0) (type default) (color 0 0 0 0))
    (uuid 25d545dc-8f50-4573-922c-35ef5a2a3a19)
  )
  (wire (pts (xy 68.58 118.11) (xy 68.58 110.49))
    (stroke (width 0) (type default) (color 0 0 0 0))
    (uuid 2732632c-4768-42b6-bf7f-14643424019e)
  )
  (wire (pts (xy 59.69 85.09) (xy 76.2 85.09))
    (stroke (width 0) (type default) (color 0 0 0 0))
    (uuid 3172f2e2-18d2-4a80-ae30-5707b3409798)
  )
  (wire (pts (xy 109.22 35.56) (xy 109.22 40.64))
    (stroke (width 0) (type default) (color 0 0 0 0))
    (uuid 31e08896-1992-4725-96d9-9d2728bca7a3)
  )
  (wire (pts (xy 110.49 20.32) (xy 134.62 20.32))
    (stroke (width 0) (type default) (color 0 0 0 0))
    (uuid 32667662-ae86-4904-b198-3e95f11851bf)
  )
  (wire (pts (xy 68.58 74.93) (xy 68.58 88.9))
    (stroke (width 0) (type default) (color 0 0 0 0))
    (uuid 3cd1bda0-18db-417d-b581-a0c50623df68)
  )
  (wire (pts (xy 130.81 19.05) (xy 130.81 26.67))
    (stroke (width 0) (type default) (color 0 0 0 0))
    (uuid 3dcc657b-55a1-48e0-9667-e01e7b6b08b5)
  )
  (wire (pts (xy 101.6 81.28) (xy 113.03 81.28))
    (stroke (width 0) (type default) (color 0 0 0 0))
    (uuid 3f5fe6b7-98fc-4d3e-9567-f9f7202d1455)
  )
  (wire (pts (xy 127 104.14) (xy 143.51 104.14))
    (stroke (width 0) (type default) (color 0 0 0 0))
    (uuid 44d8279a-9cd1-4db6-856f-0363131605fc)
  )
  (wire (pts (xy 101.6 52.07) (xy 110.49 52.07))
    (stroke (width 0) (type default) (color 0 0 0 0))
    (uuid 46918595-4a45-48e8-84c0-961b4db7f35f)
  )
  (wire (pts (xy 53.34 104.14) (xy 127 104.14))
    (stroke (width 0) (type default) (color 0 0 0 0))
    (uuid 47baf4b1-0938-497d-88f9-671136aa8be7)
  )
  (wire (pts (xy 71.12 35.56) (xy 71.12 29.21))
    (stroke (width 0) (type default) (color 0 0 0 0))
    (uuid 48ab88d7-7084-4d02-b109-3ad55a30bb11)
  )
  (wire (pts (xy 76.2 92.71) (xy 73.66 92.71))
    (stroke (width 0) (type default) (color 0 0 0 0))
    (uuid 48f827a8-6e22-4a2e-abdc-c2a03098d883)
  )
  (wire (pts (xy 101.6 53.34) (xy 101.6 55.88))
    (stroke (width 0) (type default) (color 0 0 0 0))
    (uuid 4a4ec8d9-3d72-4952-83d4-808f65849a2b)
  )
  (wire (pts (xy 127 97.79) (xy 127 104.14))
    (stroke (width 0) (type default) (color 0 0 0 0))
    (uuid 4fb02e58-160a-4a39-9f22-d0c75e82ee72)
  )
  (wire (pts (xy 53.34 21.59) (xy 101.6 21.59))
    (stroke (width 0) (type default) (color 0 0 0 0))
    (uuid 51c4dc0a-5b9f-4edf-a83f-4a12881e42ef)
  )
  (wire (pts (xy 119.38 97.79) (xy 119.38 100.33))
    (stroke (width 0) (type default) (color 0 0 0 0))
    (uuid 55e740a3-0735-4744-896e-2bf5437093b9)
  )
  (wire (pts (xy 73.66 55.88) (xy 73.66 92.71))
    (stroke (width 0) (type default) (color 0 0 0 0))
    (uuid 5b2b5c7d-f943-4634-9f0a-e9561705c49d)
  )
  (wire (pts (xy 130.81 66.04) (xy 130.81 67.31))
    (stroke (width 0) (type default) (color 0 0 0 0))
    (uuid 5cbb5968-dbb5-4b84-864a-ead1cacf75b9)
  )
  (wire (pts (xy 111.76 48.26) (xy 111.76 50.8))
    (stroke (width 0) (type default) (color 0 0 0 0))
    (uuid 61fe293f-6808-4b7f-9340-9aaac7054a97)
  )
  (wire (pts (xy 119.38 64.77) (xy 119.38 67.31))
    (stroke (width 0) (type default) (color 0 0 0 0))
    (uuid 62c076a3-d618-44a2-9042-9a08b3576787)
  )
  (wire (pts (xy 109.22 27.94) (xy 109.22 19.05))
    (stroke (width 0) (type default) (color 0 0 0 0))
    (uuid 6441b183-b8f2-458f-a23d-60e2b1f66dd6)
  )
  (wire (pts (xy 76.2 48.26) (xy 64.77 48.26))
    (stroke (width 0) (type default) (color 0 0 0 0))
    (uuid 67621f9e-0a6a-4778-ad69-04dcf300659c)
  )
  (wire (pts (xy 101.6 44.45) (xy 110.49 44.45))
    (stroke (width 0) (type default) (color 0 0 0 0))
    (uuid 67f6e996-3c99-493c-8f6f-e739e2ed5d7a)
  )
  (wire (pts (xy 53.34 52.07) (xy 76.2 52.07))
    (stroke (width 0) (type default) (color 0 0 0 0))
    (uuid 68e09be7-3bbc-4443-a838-209ce20b2bef)
  )
  (wire (pts (xy 101.6 85.09) (xy 104.14 85.09))
    (stroke (width 0) (type default) (color 0 0 0 0))
    (uuid 6a955fc7-39d9-4c75-9a69-676ca8c0b9b2)
  )
  (wire (pts (xy 109.22 63.5) (xy 123.19 63.5))
    (stroke (width 0) (type default) (color 0 0 0 0))
    (uuid 6e105729-aba0-497c-a99e-c32d2b3ddb6d)
  )
  (wire (pts (xy 68.58 66.04) (xy 76.2 66.04))
    (stroke (width 0) (type default) (color 0 0 0 0))
    (uuid 712d6a7d-2b62-464f-b745-fd2a6b0187f6)
  )
  (wire (pts (xy 50.8 33.02) (xy 76.2 33.02))
    (stroke (width 0) (type default) (color 0 0 0 0))
    (uuid 716e31c5-485f-40b5-88e3-a75900da9811)
  )
  (wire (pts (xy 105.41 101.6) (xy 123.19 101.6))
    (stroke (width 0) (type default) (color 0 0 0 0))
    (uuid 71c31975-2c45-4d18-a25a-18e07a55d11e)
  )
  (wire (pts (xy 101.6 88.9) (xy 105.41 88.9))
    (stroke (width 0) (type default) (color 0 0 0 0))
    (uuid 746ba970-8279-4e7b-aed3-f28687777c21)
  )
  (wire (pts (xy 143.51 104.14) (xy 143.51 64.77))
    (stroke (width 0) (type default) (color 0 0 0 0))
    (uuid 77ed3941-d133-4aef-a9af-5a39322d14eb)
  )
  (wire (pts (xy 119.38 60.96) (xy 109.22 60.96))
    (stroke (width 0) (type default) (color 0 0 0 0))
    (uuid 78cbdd6c-4878-4cc5-9a58-0e506478e37d)
  )
  (wire (pts (xy 106.68 33.02) (xy 106.68 29.21))
    (stroke (width 0) (type default) (color 0 0 0 0))
    (uuid 80094b70-85ab-4ff6-934b-60d5ee65023a)
  )
  (wire (pts (xy 107.95 17.78) (xy 119.38 17.78))
    (stroke (width 0) (type default) (color 0 0 0 0))
    (uuid 8322f275-268c-4e87-a69f-4cfbf05e747f)
  )
  (wire (pts (xy 101.6 66.04) (xy 105.41 66.04))
    (stroke (width 0) (type default) (color 0 0 0 0))
    (uuid 842e430f-0c35-45f3-a0b5-95ae7b7ae388)
  )
  (wire (pts (xy 110.49 30.48) (xy 110.49 20.32))
    (stroke (width 0) (type default) (color 0 0 0 0))
    (uuid 852dabbf-de45-4470-8176-59d37a754407)
  )
  (wire (pts (xy 81.28 113.03) (xy 81.28 118.11))
    (stroke (width 0) (type default) (color 0 0 0 0))
    (uuid 854dd5d4-5fd2-4730-bd49-a9cd8299a065)
  )
  (wire (pts (xy 104.14 95.25) (xy 104.14 85.09))
    (stroke (width 0) (type default) (color 0 0 0 0))
    (uuid 8ca3e20d-bcc7-4c5e-9deb-562dfed9fecb)
  )
  (wire (pts (xy 68.58 110.49) (xy 73.66 110.49))
    (stroke (width 0) (type default) (color 0 0 0 0))
    (uuid 8d55e186-3e11-40e8-a65e-b36a8a00069e)
  )
  (wire (pts (xy 50.8 67.31) (xy 59.69 67.31))
    (stroke (width 0) (type default) (color 0 0 0 0))
    (uuid 9340c285-5767-42d5-8b6d-63fe2a40ddf3)
  )
  (wire (pts (xy 123.19 59.69) (xy 123.19 57.15))
    (stroke (width 0) (type default) (color 0 0 0 0))
    (uuid 94c158d1-8503-4553-b511-bf42f506c2a8)
  )
  (wire (pts (xy 123.19 63.5) (xy 123.19 67.31))
    (stroke (width 0) (type default) (color 0 0 0 0))
    (uuid 983c426c-24e0-4c65-ab69-1f1824adc5c6)
  )
  (wire (pts (xy 101.6 21.59) (xy 101.6 29.21))
    (stroke (width 0) (type default) (color 0 0 0 0))
    (uuid 98e81e80-1f85-4152-be3f-99785ea97751)
  )
  (wire (pts (xy 73.66 110.49) (xy 81.28 110.49))
    (stroke (width 0) (type default) (color 0 0 0 0))
    (uuid 9c8ccb2a-b1e9-4f2c-94fe-301b5975277e)
  )
  (wire (pts (xy 110.49 59.69) (xy 123.19 59.69))
    (stroke (width 0) (type default) (color 0 0 0 0))
    (uuid 9ccf03e8-755a-4cd9-96fc-30e1d08fa253)
  )
  (wire (pts (xy 76.2 55.88) (xy 73.66 55.88))
    (stroke (width 0) (type default) (color 0 0 0 0))
    (uuid a03e565f-d8cd-4032-aae3-b7327d4143dd)
  )
  (wire (pts (xy 134.62 20.32) (xy 134.62 26.67))
    (stroke (width 0) (type default) (color 0 0 0 0))
    (uuid a05d7640-f2f6-4ba7-8c51-5a4af431fc13)
  )
  (wire (pts (xy 105.41 66.04) (xy 105.41 21.59))
    (stroke (width 0) (type default) (color 0 0 0 0))
    (uuid a1823eb2-fb0d-4ed8-8b96-04184ac3a9d5)
  )
  (wire (pts (xy 111.76 58.42) (xy 130.81 58.42))
    (stroke (width 0) (type default) (color 0 0 0 0))
    (uuid a7520ad3-0f8b-4788-92d4-8ffb277041e6)
  )
  (wire (pts (xy 130.81 58.42) (xy 130.81 57.15))
    (stroke (width 0) (type default) (color 0 0 0 0))
    (uuid a795f1ba-cdd5-4cc5-9a52-08586e982934)
  )
  (wire (pts (xy 101.6 71.12) (xy 101.6 69.85))
    (stroke (width 0) (type default) (color 0 0 0 0))
    (uuid aca4de92-9c41-4c2b-9afa-540d02dafa1c)
  )
  (wire (pts (xy 111.76 66.04) (xy 130.81 66.04))
    (stroke (width 0) (type default) (color 0 0 0 0))
    (uuid afb8e687-4a13-41a1-b8c0-89a749e897fe)
  )
  (wire (pts (xy 50.8 30.48) (xy 64.77 30.48))
    (stroke (width 0) (type default) (color 0 0 0 0))
    (uuid b1086f75-01ba-4188-8d36-75a9e2828ca9)
  )
  (wire (pts (xy 68.58 88.9) (xy 76.2 88.9))
    (stroke (width 0) (type default) (color 0 0 0 0))
    (uuid b3d08afa-f296-4e3b-8825-73b6331d35bf)
  )
  (wire (pts (xy 110.49 38.1) (xy 110.49 44.45))
    (stroke (width 0) (type default) (color 0 0 0 0))
    (uuid b5352a33-563a-4ffe-a231-2e68fb54afa3)
  )
  (wire (pts (xy 119.38 17.78) (xy 119.38 26.67))
    (stroke (width 0) (type default) (color 0 0 0 0))
    (uuid b6270a28-e0d9-4655-a18a-03dbf007b940)
  )
  (wire (pts (xy 113.03 62.23) (xy 134.62 62.23))
    (stroke (width 0) (type default) (color 0 0 0 0))
    (uuid bb7f0588-d4d8-44bf-9ebf-3c533fe4d6ae)
  )
  (wire (pts (xy 107.95 33.02) (xy 107.95 36.83))
    (stroke (width 0) (type default) (color 0 0 0 0))
    (uuid bfc0aadc-38cf-466e-a642-68fdc3138c78)
  )
  (wire (pts (xy 107.95 92.71) (xy 101.6 92.71))
    (stroke (width 0) (type default) (color 0 0 0 0))
    (uuid c022004a-c968-410e-b59e-fbab0e561e9d)
  )
  (wire (pts (xy 101.6 73.66) (xy 110.49 73.66))
    (stroke (width 0) (type default) (color 0 0 0 0))
    (uuid c1d83899-e380-49f9-a87d-8e78bc089ebf)
  )
  (wire (pts (xy 50.8 69.85) (xy 76.2 69.85))
    (stroke (width 0) (type default) (color 0 0 0 0))
    (uuid c41b3c8b-634e-435a-b582-96b83bbd4032)
  )
  (wire (pts (xy 110.49 66.04) (xy 110.49 64.77))
    (stroke (width 0) (type default) (color 0 0 0 0))
    (uuid c43663ee-9a0d-4f27-a292-89ba89964065)
  )
  (wire (pts (xy 71.12 29.21) (xy 76.2 29.21))
    (stroke (width 0) (type default) (color 0 0 0 0))
    (uuid c801d42e-dd94-493e-bd2f-6c3ddad43f55)
  )
  (wire (pts (xy 111.76 66.04) (xy 111.76 69.85))
    (stroke (width 0) (type default) (color 0 0 0 0))
    (uuid c830e3bc-dc64-4f65-8f47-3b106bae2807)
  )
  (wire (pts (xy 107.95 17.78) (xy 107.95 25.4))
    (stroke (width 0) (type default) (color 0 0 0 0))
    (uuid d4a1d3c4-b315-4bec-9220-d12a9eab51e0)
  )
  (wire (pts (xy 106.68 16.51) (xy 123.19 16.51))
    (stroke (width 0) (type default) (color 0 0 0 0))
    (uuid d57dcfee-5058-4fc2-a68b-05f9a48f685b)
  )
  (wire (pts (xy 109.22 71.12) (xy 101.6 71.12))
    (stroke (width 0) (type default) (color 0 0 0 0))
    (uuid d7269d2a-b8c0-422d-8f25-f79ea31bf75e)
  )
  (wire (pts (xy 101.6 77.47) (xy 111.76 77.47))
    (stroke (width 0) (type default) (color 0 0 0 0))
    (uuid da469d11-a8a4-414b-9449-d151eeaf4853)
  )
  (wire (pts (xy 123.19 16.51) (xy 123.19 26.67))
    (stroke (width 0) (type default) (color 0 0 0 0))
    (uuid dd00c2e1-6027-4717-b312-4fab3ee52002)
  )
  (wire (pts (xy 130.81 102.87) (xy 130.81 97.79))
    (stroke (width 0) (type default) (color 0 0 0 0))
    (uuid e10b5627-3247-4c86-b9f6-ef474ca11543)
  )
  (wire (pts (xy 143.51 64.77) (xy 127 64.77))
    (stroke (width 0) (type default) (color 0 0 0 0))
    (uuid e615f7aa-337e-474d-9615-2ad82b1c44ca)
  )
  (wire (pts (xy 104.14 102.87) (xy 130.81 102.87))
    (stroke (width 0) (type default) (color 0 0 0 0))
    (uuid e8314017-7be6-4011-9179-37449a29b311)
  )
  (wire (pts (xy 73.66 92.71) (xy 73.66 110.49))
    (stroke (width 0) (type default) (color 0 0 0 0))
    (uuid e877bf4a-4210-4bd3-b7b0-806eb4affc5b)
  )
  (wire (pts (xy 110.49 64.77) (xy 119.38 64.77))
    (stroke (width 0) (type default) (color 0 0 0 0))
    (uuid e9bb29b2-2bb9-4ea2-acd9-2bb3ca677a12)
  )
  (wire (pts (xy 134.62 62.23) (xy 134.62 67.31))
    (stroke (width 0) (type default) (color 0 0 0 0))
    (uuid f1830a1b-f0cc-47ae-a2c9-679c82032f14)
  )
  (wire (pts (xy 101.6 40.64) (xy 109.22 40.64))
    (stroke (width 0) (type default) (color 0 0 0 0))
    (uuid f3490fa5-5a27-423b-af60-53609669542c)
  )
  (wire (pts (xy 119.38 100.33) (xy 107.95 100.33))
    (stroke (width 0) (type default) (color 0 0 0 0))
    (uuid f4f99e3d-7269-4f6a-a759-16ad2a258779)
  )
  (wire (pts (xy 50.8 38.1) (xy 53.34 38.1))
    (stroke (width 0) (type default) (color 0 0 0 0))
    (uuid f71da641-16e6-4257-80c3-0b9d804fee4f)
  )
  (wire (pts (xy 53.34 38.1) (xy 53.34 52.07))
    (stroke (width 0) (type default) (color 0 0 0 0))
    (uuid fd470e95-4861-44fe-b1e4-6d8a7c66e144)
  )
  (wire (pts (xy 68.58 72.39) (xy 68.58 66.04))
    (stroke (width 0) (type default) (color 0 0 0 0))
    (uuid fe8d9267-7834-48d6-a191-c8724b2ee78d)
  )

  (symbol (lib_id "Connector:Conn_01x01_Female") (at 48.26 104.14 0) (mirror y) (unit 1)
    (in_bom yes) (on_board yes)
    (uuid 00000000-0000-0000-0000-00006265974f)
    (property "Reference" "D4" (id 0) (at 51.0032 101.7778 0))
    (property "Value" "Conn_01x01_Female" (id 1) (at 51.0032 107.5436 0)
      (effects (font (size 1.27 1.27)) hide)
    )
    (property "Footprint" "Connector_PinSocket_2.54mm:PinSocket_1x01_P2.54mm_Vertical" (id 2) (at 48.26 104.14 0)
      (effects (font (size 1.27 1.27)) hide)
    )
    (property "Datasheet" "~" (id 3) (at 48.26 104.14 0)
      (effects (font (size 1.27 1.27)) hide)
    )
    (pin "1" (uuid 1d9e386a-d455-4280-add6-9d52cdfa9347))
  )

  (symbol (lib_id "Connector:Conn_01x01_Female") (at 148.59 118.11 0) (mirror x) (unit 1)
    (in_bom yes) (on_board yes)
    (uuid 00000000-0000-0000-0000-000062659f3e)
    (property "Reference" "E4" (id 0) (at 145.8468 114.7318 0))
    (property "Value" "Conn_01x01_Female" (id 1) (at 145.8468 114.7064 0)
      (effects (font (size 1.27 1.27)) hide)
    )
    (property "Footprint" "Connector_PinSocket_2.54mm:PinSocket_1x01_P2.54mm_Vertical" (id 2) (at 148.59 118.11 0)
      (effects (font (size 1.27 1.27)) hide)
    )
    (property "Datasheet" "~" (id 3) (at 148.59 118.11 0)
      (effects (font (size 1.27 1.27)) hide)
    )
    (pin "1" (uuid 8f201d63-b0a5-4de4-93e9-852e9c9ac103))
  )

  (symbol (lib_id "Connector:Conn_01x01_Female") (at 48.26 118.11 0) (mirror y) (unit 1)
    (in_bom yes) (on_board yes)
    (uuid 00000000-0000-0000-0000-00006265a705)
    (property "Reference" "GND1" (id 0) (at 51.0032 115.7478 0))
    (property "Value" "Conn_01x01_Female" (id 1) (at 51.0032 121.5136 0)
      (effects (font (size 1.27 1.27)) hide)
    )
    (property "Footprint" "Connector_PinSocket_2.54mm:PinSocket_1x01_P2.54mm_Vertical" (id 2) (at 48.26 118.11 0)
      (effects (font (size 1.27 1.27)) hide)
    )
    (property "Datasheet" "~" (id 3) (at 48.26 118.11 0)
      (effects (font (size 1.27 1.27)) hide)
    )
    (pin "1" (uuid 2400ec7d-6918-44e2-9150-7b6991108365))
  )

  (symbol (lib_id "Connector:Conn_01x01_Female") (at 48.26 21.59 180) (unit 1)
    (in_bom yes) (on_board yes)
    (uuid 00000000-0000-0000-0000-00006265aae6)
    (property "Reference" "UCC1" (id 0) (at 51.0032 18.2118 0))
    (property "Value" "Conn_01x01_Female" (id 1) (at 51.0032 18.1864 0)
      (effects (font (size 1.27 1.27)) hide)
    )
    (property "Footprint" "Connector_PinSocket_2.54mm:PinSocket_1x01_P2.54mm_Vertical" (id 2) (at 48.26 21.59 0)
      (effects (font (size 1.27 1.27)) hide)
    )
    (property "Datasheet" "~" (id 3) (at 48.26 21.59 0)
      (effects (font (size 1.27 1.27)) hide)
    )
    (pin "1" (uuid 655a6c48-7024-4ed0-a3ff-a0a5b52a7a8a))
  )

  (symbol (lib_id "freza-rescue:E147D-krokomer") (at 92.71 43.18 0) (unit 1)
    (in_bom yes) (on_board yes)
    (uuid 00000000-0000-0000-0000-00006265f389)
    (property "Reference" "DEK1" (id 0) (at 88.9 22.479 0))
    (property "Value" "E147D" (id 1) (at 88.9 24.7904 0))
    (property "Footprint" "Package_DIP:DIP-16_W7.62mm" (id 2) (at 91.44 43.18 0)
      (effects (font (size 1.27 1.27)) hide)
    )
    (property "Datasheet" "" (id 3) (at 91.44 43.18 0)
      (effects (font (size 1.27 1.27)) hide)
    )
    (pin "1" (uuid 2a2855d4-f0e4-4f07-b83a-461bddb70df0))
    (pin "10" (uuid 9115a638-f981-43dc-89de-3e338b1d352e))
    (pin "11" (uuid 7e9cb2d7-e6f8-463d-9a01-80c6d77e2d47))
    (pin "12" (uuid e2e6a4e7-8f58-4812-a30c-dd1a958955f7))
    (pin "13" (uuid 0fcea9e1-d3d5-4811-a5dd-0eaa51267d72))
    (pin "14" (uuid 1c285d96-d383-448d-bf5f-9ba6531cce6f))
    (pin "15" (uuid 43832edb-bd2f-4e01-8ab8-1911a56f133d))
    (pin "16" (uuid 06e0378d-0802-4ff1-bc1a-85f138397517))
    (pin "2" (uuid 396021b2-d840-4939-b631-1b10020aecf6))
    (pin "3" (uuid 2c013153-3971-49f8-a330-a9d8438dfe15))
    (pin "4" (uuid bbf14473-783f-4d22-8426-e816ebed527a))
    (pin "5" (uuid b1200b97-6cee-46e6-9c24-e976984a20a2))
    (pin "6" (uuid ed9ccf7a-eaa8-4519-b265-b68125f6028a))
    (pin "7" (uuid 45e2e032-8bb2-45c5-9d8c-93761bd41e09))
    (pin "8" (uuid 90c493a4-be4a-4336-9f5f-9ed582373a9b))
    (pin "9" (uuid b253c083-a252-4039-8c35-5c97d10775e1))
  )

  (symbol (lib_id "freza-rescue:E147D-krokomer") (at 92.71 80.01 0) (unit 1)
    (in_bom yes) (on_board yes)
    (uuid 00000000-0000-0000-0000-000062661435)
    (property "Reference" "DEK2" (id 0) (at 88.9 59.309 0))
    (property "Value" "E147D" (id 1) (at 88.9 61.6204 0))
    (property "Footprint" "Package_DIP:DIP-16_W7.62mm" (id 2) (at 91.44 80.01 0)
      (effects (font (size 1.27 1.27)) hide)
    )
    (property "Datasheet" "" (id 3) (at 91.44 80.01 0)
      (effects (font (size 1.27 1.27)) hide)
    )
    (pin "1" (uuid 8cc4aa30-1c7e-46ef-b5ea-030d9b88b2ba))
    (pin "10" (uuid b6b2b31c-3d0f-4de0-9f84-a3e1d629eb9c))
    (pin "11" (uuid 20b00bfc-ccbf-4118-abcf-2be697c972b1))
    (pin "12" (uuid ce0daa99-f9cd-4e97-85f6-46e349439527))
    (pin "13" (uuid 9de4c4e7-85b6-4e4c-91a9-3ec355661a79))
    (pin "14" (uuid 538903bc-0e34-43ea-ac93-d986d7208b3d))
    (pin "15" (uuid d316d8b4-9f8e-4997-a4fd-3a4e617bf7e5))
    (pin "16" (uuid 9cbc46a6-b68e-4f4b-9e1e-295aafa62984))
    (pin "2" (uuid e0a677a6-6ccf-4425-9a0e-91332783b2c0))
    (pin "3" (uuid 0b1e5997-7cd1-4f74-a1f7-9972c74a00be))
    (pin "4" (uuid a6a6e850-efc9-46f6-b7e4-25aed07b7dce))
    (pin "5" (uuid e8743a2a-90b5-4dff-bf20-6eb4544d0cb0))
    (pin "6" (uuid 2a287be7-11fa-4895-999c-6c7a2ba05947))
    (pin "7" (uuid d414a501-c723-4027-b3dc-dc55b30c6bfc))
    (pin "8" (uuid d8f7e059-8dd2-4409-9d96-38a5262ce2df))
    (pin "9" (uuid 31c564e2-54c1-46dc-8fa7-c346347f3185))
  )

  (symbol (lib_id "freza-rescue:SensorKrok-krokomer") (at 73.66 116.84 0) (unit 1)
    (in_bom yes) (on_board yes)
    (uuid 00000000-0000-0000-0000-00006267943e)
    (property "Reference" "SensKrk1" (id 0) (at 95.9612 110.4646 0)
      (effects (font (size 1.27 1.27)) (justify left))
    )
    (property "Value" "SensorKrok" (id 1) (at 95.9612 112.776 0)
      (effects (font (size 1.27 1.27)) (justify left))
    )
    (property "Footprint" "krokomer:Krokomer" (id 2) (at 73.66 116.84 0)
      (effects (font (size 1.27 1.27)) hide)
    )
    (property "Datasheet" "" (id 3) (at 73.66 116.84 0)
      (effects (font (size 1.27 1.27)) hide)
    )
    (pin "1" (uuid 992a545b-e557-416a-a4be-9fd8dbf5914b))
    (pin "2" (uuid d571cde4-c062-4e90-8e0a-c6147d1b6cd4))
  )

  (symbol (lib_id "freza-rescue:7Segment-krokomer") (at 132.08 53.34 0) (unit 1)
    (in_bom yes) (on_board yes)
    (uuid 00000000-0000-0000-0000-0000626841e2)
    (property "Reference" "Seg1" (id 0) (at 136.6012 40.7416 0)
      (effects (font (size 1.27 1.27)) (justify left))
    )
    (property "Value" "7Segment" (id 1) (at 136.6012 43.053 0)
      (effects (font (size 1.27 1.27)) (justify left))
    )
    (property "Footprint" "Display_7Segment:7SegmentLED_LTS6760_LTS6780" (id 2) (at 132.08 57.15 0)
      (effects (font (size 1.27 1.27)) hide)
    )
    (property "Datasheet" "" (id 3) (at 132.08 57.15 0)
      (effects (font (size 1.27 1.27)) hide)
    )
    (pin "1" (uuid caca7293-783c-4e40-92b7-4c4a8898b98c))
    (pin "10" (uuid e0c10216-f61d-4f0e-a250-76f73198a0a4))
    (pin "2" (uuid b1d509bf-66fa-440a-adbe-fd2165565a24))
    (pin "3" (uuid fe48ed49-c0b3-4ad9-bc26-88a414fe8bf1))
    (pin "4" (uuid 587cdc98-aebb-430c-a150-3aad172ccffc))
    (pin "5" (uuid c1a47dd0-cef4-40c7-992a-17db4df71589))
    (pin "6" (uuid 66c89329-6661-46fd-b4c5-7db91af0050f))
    (pin "7" (uuid 1fab8dc5-6c38-4c19-a611-0ae252847e83))
    (pin "8" (uuid 5df71fe0-905d-48f5-b2fa-fef49c1a211b))
    (pin "9" (uuid 0696d13a-e09c-42a6-85bc-16c11e7897fe))
  )

  (symbol (lib_id "freza-rescue:7Segment-krokomer") (at 132.08 93.98 0) (unit 1)
    (in_bom yes) (on_board yes)
    (uuid 00000000-0000-0000-0000-000062685897)
    (property "Reference" "Seg2" (id 0) (at 136.6012 81.3816 0)
      (effects (font (size 1.27 1.27)) (justify left))
    )
    (property "Value" "7Segment" (id 1) (at 136.6012 83.693 0)
      (effects (font (size 1.27 1.27)) (justify left))
    )
    (property "Footprint" "Display_7Segment:7SegmentLED_LTS6760_LTS6780" (id 2) (at 132.08 97.79 0)
      (effects (font (size 1.27 1.27)) hide)
    )
    (property "Datasheet" "" (id 3) (at 132.08 97.79 0)
      (effects (font (size 1.27 1.27)) hide)
    )
    (pin "1" (uuid 0a7f75d0-9f86-4caa-a0e4-44ff4b8f6861))
    (pin "10" (uuid c0d93d79-51b0-495e-a58a-904c5f432171))
    (pin "2" (uuid 196e3808-2076-45b5-b9a7-10beae505375))
    (pin "3" (uuid 8f0ccd08-8d6d-413c-9eb6-0f29fb10329e))
    (pin "4" (uuid a3fa3604-dc33-4ff0-b22d-eb4ffa032c36))
    (pin "5" (uuid af62fdac-3d0e-4eab-9d5f-334f2621133c))
    (pin "6" (uuid 0fae42a2-5450-4b3e-a00e-2c3e0f6bef61))
    (pin "7" (uuid 3476b378-ca65-42a8-8bfb-f59f6e97457d))
    (pin "8" (uuid fa4d2db4-e90e-44b7-b5e1-58e9280453d5))
    (pin "9" (uuid be2f735e-1952-419a-aaa7-6c24ccbd2da3))
  )

  (symbol (lib_id "Device:R") (at 106.68 25.4 0) (unit 1)
    (in_bom yes) (on_board yes)
    (uuid 00000000-0000-0000-0000-00006269bd2e)
    (property "Reference" "R3" (id 0) (at 108.458 24.2316 0)
      (effects (font (size 1.27 1.27)) (justify left))
    )
    (property "Value" "R" (id 1) (at 108.458 26.543 0)
      (effects (font (size 1.27 1.27)) (justify left))
    )
    (property "Footprint" "Resistor_THT:R_Axial_DIN0207_L6.3mm_D2.5mm_P10.16mm_Horizontal" (id 2) (at 104.902 25.4 90)
      (effects (font (size 1.27 1.27)) hide)
    )
    (property "Datasheet" "~" (id 3) (at 106.68 25.4 0)
      (effects (font (size 1.27 1.27)) hide)
    )
    (pin "1" (uuid d5b53cb0-b045-466f-a1b2-f8c5d9434314))
    (pin "2" (uuid d37bf096-ac61-47c7-81ea-de6bd8ae0d1f))
  )

  (symbol (lib_id "Device:R") (at 107.95 29.21 0) (unit 1)
    (in_bom yes) (on_board yes)
    (uuid 00000000-0000-0000-0000-00006269ecd3)
    (property "Reference" "R4" (id 0) (at 109.728 28.0416 0)
      (effects (font (size 1.27 1.27)) (justify left))
    )
    (property "Value" "R" (id 1) (at 109.728 30.353 0)
      (effects (font (size 1.27 1.27)) (justify left))
    )
    (property "Footprint" "Resistor_THT:R_Axial_DIN0207_L6.3mm_D2.5mm_P10.16mm_Horizontal" (id 2) (at 106.172 29.21 90)
      (effects (font (size 1.27 1.27)) hide)
    )
    (property "Datasheet" "~" (id 3) (at 107.95 29.21 0)
      (effects (font (size 1.27 1.27)) hide)
    )
    (pin "1" (uuid f30a7ba7-0f24-4cc9-838c-c0ceb53d7ff7))
    (pin "2" (uuid 40de0b5b-6299-46aa-b077-de32583b07af))
  )

  (symbol (lib_id "Device:R") (at 109.22 31.75 0) (unit 1)
    (in_bom yes) (on_board yes)
    (uuid 00000000-0000-0000-0000-00006269f094)
    (property "Reference" "R6" (id 0) (at 110.998 30.5816 0)
      (effects (font (size 1.27 1.27)) (justify left))
    )
    (property "Value" "R" (id 1) (at 110.998 32.893 0)
      (effects (font (size 1.27 1.27)) (justify left))
    )
    (property "Footprint" "Resistor_THT:R_Axial_DIN0207_L6.3mm_D2.5mm_P10.16mm_Horizontal" (id 2) (at 107.442 31.75 90)
      (effects (font (size 1.27 1.27)) hide)
    )
    (property "Datasheet" "~" (id 3) (at 109.22 31.75 0)
      (effects (font (size 1.27 1.27)) hide)
    )
    (pin "1" (uuid 97b6903c-ae03-48c5-b4bb-1e6df8addd30))
    (pin "2" (uuid 96d0b3fc-fe6b-4165-8653-fb23e6f0ebc1))
  )

  (symbol (lib_id "Device:R") (at 110.49 34.29 0) (unit 1)
    (in_bom yes) (on_board yes)
    (uuid 00000000-0000-0000-0000-00006269f67b)
    (property "Reference" "R9" (id 0) (at 112.268 33.1216 0)
      (effects (font (size 1.27 1.27)) (justify left))
    )
    (property "Value" "R" (id 1) (at 112.268 35.433 0)
      (effects (font (size 1.27 1.27)) (justify left))
    )
    (property "Footprint" "Resistor_THT:R_Axial_DIN0207_L6.3mm_D2.5mm_P10.16mm_Horizontal" (id 2) (at 108.712 34.29 90)
      (effects (font (size 1.27 1.27)) hide)
    )
    (property "Datasheet" "~" (id 3) (at 110.49 34.29 0)
      (effects (font (size 1.27 1.27)) hide)
    )
    (pin "1" (uuid dda6d46a-09da-469a-a641-c4ec10ef7d94))
    (pin "2" (uuid b1075f8c-450b-4934-a5ea-b91776197d99))
  )

  (symbol (lib_id "Device:R") (at 109.22 57.15 0) (unit 1)
    (in_bom yes) (on_board yes)
    (uuid 00000000-0000-0000-0000-0000626b6aae)
    (property "Reference" "R7" (id 0) (at 110.998 55.9816 0)
      (effects (font (size 1.27 1.27)) (justify left))
    )
    (property "Value" "R" (id 1) (at 110.998 58.293 0)
      (effects (font (size 1.27 1.27)) (justify left))
    )
    (property "Footprint" "Resistor_THT:R_Axial_DIN0207_L6.3mm_D2.5mm_P10.16mm_Horizontal" (id 2) (at 107.442 57.15 90)
      (effects (font (size 1.27 1.27)) hide)
    )
    (property "Datasheet" "~" (id 3) (at 109.22 57.15 0)
      (effects (font (size 1.27 1.27)) hide)
    )
    (pin "1" (uuid 313b7a9e-8d80-45a1-a06b-45a9ea7f6767))
    (pin "2" (uuid d6e524ab-6c9d-4884-87fa-5a3961a5cf03))
  )

  (symbol (lib_id "Device:R") (at 110.49 55.88 0) (unit 1)
    (in_bom yes) (on_board yes)
    (uuid 00000000-0000-0000-0000-0000626be022)
    (property "Reference" "R10" (id 0) (at 112.268 54.7116 0)
      (effects (font (size 1.27 1.27)) (justify left))
    )
    (property "Value" "R" (id 1) (at 112.268 57.023 0)
      (effects (font (size 1.27 1.27)) (justify left))
    )
    (property "Footprint" "Resistor_THT:R_Axial_DIN0207_L6.3mm_D2.5mm_P10.16mm_Horizontal" (id 2) (at 108.712 55.88 90)
      (effects (font (size 1.27 1.27)) hide)
    )
    (property "Datasheet" "~" (id 3) (at 110.49 55.88 0)
      (effects (font (size 1.27 1.27)) hide)
    )
    (pin "1" (uuid 3f796650-f789-4621-8db3-238a25043e38))
    (pin "2" (uuid 2bc1f94a-dc1e-4410-a149-f67a43239568))
  )

  (symbol (lib_id "Device:R") (at 111.76 54.61 0) (unit 1)
    (in_bom yes) (on_board yes)
    (uuid 00000000-0000-0000-0000-0000626be298)
    (property "Reference" "R12" (id 0) (at 113.538 53.4416 0)
      (effects (font (size 1.27 1.27)) (justify left))
    )
    (property "Value" "R" (id 1) (at 113.538 55.753 0)
      (effects (font (size 1.27 1.27)) (justify left))
    )
    (property "Footprint" "Resistor_THT:R_Axial_DIN0207_L6.3mm_D2.5mm_P10.16mm_Horizontal" (id 2) (at 109.982 54.61 90)
      (effects (font (size 1.27 1.27)) hide)
    )
    (property "Datasheet" "~" (id 3) (at 111.76 54.61 0)
      (effects (font (size 1.27 1.27)) hide)
    )
    (pin "1" (uuid 8537fff7-7cb2-4934-9c05-6b4e63667f64))
    (pin "2" (uuid 812d99cb-8db1-4a70-9c40-d67f0437abb5))
  )

  (symbol (lib_id "Device:R") (at 107.95 96.52 0) (unit 1)
    (in_bom yes) (on_board yes)
    (uuid 00000000-0000-0000-0000-0000626c157e)
    (property "Reference" "R5" (id 0) (at 109.728 95.3516 0)
      (effects (font (size 1.27 1.27)) (justify left))
    )
    (property "Value" "R" (id 1) (at 109.728 97.663 0)
      (effects (font (size 1.27 1.27)) (justify left))
    )
    (property "Footprint" "Resistor_THT:R_Axial_DIN0207_L6.3mm_D2.5mm_P10.16mm_Horizontal" (id 2) (at 106.172 96.52 90)
      (effects (font (size 1.27 1.27)) hide)
    )
    (property "Datasheet" "~" (id 3) (at 107.95 96.52 0)
      (effects (font (size 1.27 1.27)) hide)
    )
    (pin "1" (uuid 77356800-64a4-4b2e-9553-9e5077b947bb))
    (pin "2" (uuid c3d8103d-5c76-4e29-9c3a-f45b7b6b4f54))
  )

  (symbol (lib_id "Device:R") (at 113.03 77.47 0) (unit 1)
    (in_bom yes) (on_board yes)
    (uuid 00000000-0000-0000-0000-0000626c20b3)
    (property "Reference" "R14" (id 0) (at 114.808 76.3016 0)
      (effects (font (size 1.27 1.27)) (justify left))
    )
    (property "Value" "R" (id 1) (at 114.808 78.613 0)
      (effects (font (size 1.27 1.27)) (justify left))
    )
    (property "Footprint" "Resistor_THT:R_Axial_DIN0207_L6.3mm_D2.5mm_P10.16mm_Horizontal" (id 2) (at 111.252 77.47 90)
      (effects (font (size 1.27 1.27)) hide)
    )
    (property "Datasheet" "~" (id 3) (at 113.03 77.47 0)
      (effects (font (size 1.27 1.27)) hide)
    )
    (pin "1" (uuid fd327c68-2761-4355-a383-76351fecda5b))
    (pin "2" (uuid 414e75da-9fda-4a2f-9990-d2c9bbd5bb3c))
  )

  (symbol (lib_id "Device:R") (at 111.76 73.66 0) (unit 1)
    (in_bom yes) (on_board yes)
    (uuid 00000000-0000-0000-0000-0000626c2780)
    (property "Reference" "R13" (id 0) (at 113.538 72.4916 0)
      (effects (font (size 1.27 1.27)) (justify left))
    )
    (property "Value" "R" (id 1) (at 113.538 74.803 0)
      (effects (font (size 1.27 1.27)) (justify left))
    )
    (property "Footprint" "Resistor_THT:R_Axial_DIN0207_L6.3mm_D2.5mm_P10.16mm_Horizontal" (id 2) (at 109.982 73.66 90)
      (effects (font (size 1.27 1.27)) hide)
    )
    (property "Datasheet" "~" (id 3) (at 111.76 73.66 0)
      (effects (font (size 1.27 1.27)) hide)
    )
    (pin "1" (uuid eb4bb613-7ccf-4b61-9c69-bdcc30ec85af))
    (pin "2" (uuid 20932afe-8bcc-4559-9eb5-cb3aa022389b))
  )

  (symbol (lib_id "Device:R") (at 110.49 69.85 0) (unit 1)
    (in_bom yes) (on_board yes)
    (uuid 00000000-0000-0000-0000-0000626c2b95)
    (property "Reference" "R11" (id 0) (at 112.268 68.6816 0)
      (effects (font (size 1.27 1.27)) (justify left))
    )
    (property "Value" "R" (id 1) (at 112.268 70.993 0)
      (effects (font (size 1.27 1.27)) (justify left))
    )
    (property "Footprint" "Resistor_THT:R_Axial_DIN0207_L6.3mm_D2.5mm_P10.16mm_Horizontal" (id 2) (at 108.712 69.85 90)
      (effects (font (size 1.27 1.27)) hide)
    )
    (property "Datasheet" "~" (id 3) (at 110.49 69.85 0)
      (effects (font (size 1.27 1.27)) hide)
    )
    (pin "1" (uuid 84c29ae8-4e07-44cd-886b-01e955c68645))
    (pin "2" (uuid 71f16f0d-ef0e-4266-b39b-5349581b78f5))
  )

  (symbol (lib_id "Device:R") (at 109.22 67.31 0) (unit 1)
    (in_bom yes) (on_board yes)
    (uuid 00000000-0000-0000-0000-0000626c343c)
    (property "Reference" "R8" (id 0) (at 110.998 66.1416 0)
      (effects (font (size 1.27 1.27)) (justify left))
    )
    (property "Value" "R" (id 1) (at 110.998 68.453 0)
      (effects (font (size 1.27 1.27)) (justify left))
    )
    (property "Footprint" "Resistor_THT:R_Axial_DIN0207_L6.3mm_D2.5mm_P10.16mm_Horizontal" (id 2) (at 107.442 67.31 90)
      (effects (font (size 1.27 1.27)) hide)
    )
    (property "Datasheet" "~" (id 3) (at 109.22 67.31 0)
      (effects (font (size 1.27 1.27)) hide)
    )
    (pin "1" (uuid 731518df-5af3-4074-9322-f63eb4d42490))
    (pin "2" (uuid ccecc64c-6a5a-4209-9b58-d67bb48254de))
  )

  (symbol (lib_id "Device:R") (at 105.41 97.79 0) (unit 1)
    (in_bom yes) (on_board yes)
    (uuid 00000000-0000-0000-0000-0000626d0260)
    (property "Reference" "R2" (id 0) (at 107.188 96.6216 0)
      (effects (font (size 1.27 1.27)) (justify left))
    )
    (property "Value" "R" (id 1) (at 107.188 98.933 0)
      (effects (font (size 1.27 1.27)) (justify left))
    )
    (property "Footprint" "Resistor_THT:R_Axial_DIN0207_L6.3mm_D2.5mm_P10.16mm_Horizontal" (id 2) (at 103.632 97.79 90)
      (effects (font (size 1.27 1.27)) hide)
    )
    (property "Datasheet" "~" (id 3) (at 105.41 97.79 0)
      (effects (font (size 1.27 1.27)) hide)
    )
    (pin "1" (uuid 2b5764ad-5f95-4f18-b579-6fa941477f44))
    (pin "2" (uuid 241371bc-b4d6-4a13-9cfa-ae67d7de870e))
  )

  (symbol (lib_id "Device:R") (at 104.14 99.06 0) (unit 1)
    (in_bom yes) (on_board yes)
    (uuid 00000000-0000-0000-0000-0000626d04bc)
    (property "Reference" "R1" (id 0) (at 105.918 97.8916 0)
      (effects (font (size 1.27 1.27)) (justify left))
    )
    (property "Value" "R" (id 1) (at 105.918 100.203 0)
      (effects (font (size 1.27 1.27)) (justify left))
    )
    (property "Footprint" "Resistor_THT:R_Axial_DIN0207_L6.3mm_D2.5mm_P10.16mm_Horizontal" (id 2) (at 102.362 99.06 90)
      (effects (font (size 1.27 1.27)) hide)
    )
    (property "Datasheet" "~" (id 3) (at 104.14 99.06 0)
      (effects (font (size 1.27 1.27)) hide)
    )
    (pin "1" (uuid 5a8dfac0-896b-4544-90e9-c4c988d49e0e))
    (pin "2" (uuid 0f61b633-6749-447a-8162-37bccdf66fbe))
  )

  (symbol (lib_id "Connector_Generic:Conn_01x04") (at 45.72 35.56 180) (unit 1)
    (in_bom yes) (on_board yes) (fields_autoplaced)
    (uuid c08070a8-8b4e-4a80-aa2b-80a2140160d7)
    (property "Reference" "J1" (id 0) (at 45.72 24.13 0))
    (property "Value" "Conn_01x04" (id 1) (at 45.72 26.67 0))
    (property "Footprint" "Connector_PinSocket_2.54mm:PinSocket_1x04_P2.54mm_Vertical" (id 2) (at 45.72 35.56 0)
      (effects (font (size 1.27 1.27)) hide)
    )
    (property "Datasheet" "~" (id 3) (at 45.72 35.56 0)
      (effects (font (size 1.27 1.27)) hide)
    )
    (pin "1" (uuid 2f60dc17-fd35-4d05-8750-dcc87a16d2e4))
    (pin "2" (uuid 2fd41904-d28e-46e7-ad9d-acd50c604b0d))
    (pin "3" (uuid cb42b511-5680-48c9-9ed5-a830eaedeaa5))
    (pin "4" (uuid ef9dbf13-d945-40e6-938e-35c0389b250f))
  )

  (symbol (lib_id "Connector_Generic:Conn_01x04") (at 45.72 72.39 180) (unit 1)
    (in_bom yes) (on_board yes) (fields_autoplaced)
    (uuid fbf93733-a27a-4e7e-997f-2c561c90c6c2)
    (property "Reference" "J2" (id 0) (at 45.72 60.96 0))
    (property "Value" "Conn_01x04" (id 1) (at 45.72 63.5 0))
    (property "Footprint" "Connector_PinSocket_2.54mm:PinSocket_1x04_P2.54mm_Vertical" (id 2) (at 45.72 72.39 0)
      (effects (font (size 1.27 1.27)) hide)
    )
    (property "Datasheet" "~" (id 3) (at 45.72 72.39 0)
      (effects (font (size 1.27 1.27)) hide)
    )
    (pin "1" (uuid e2721bc0-0e6a-4575-b0d1-362e0ffdee3c))
    (pin "2" (uuid 8fd3fba5-6b35-4349-bb67-b92e580d66a2))
    (pin "3" (uuid 67c7fa9e-3da1-4e48-8feb-7ec15d89ffc8))
    (pin "4" (uuid 9496f63e-845f-4943-8ad9-b516b3e6ed71))
  )

  (sheet_instances
    (path "/" (page "1"))
  )

  (symbol_instances
    (path "/00000000-0000-0000-0000-00006265974f"
      (reference "D4") (unit 1) (value "Conn_01x01_Female") (footprint "Connector_PinSocket_2.54mm:PinSocket_1x01_P2.54mm_Vertical")
    )
    (path "/00000000-0000-0000-0000-00006265f389"
      (reference "DEK1") (unit 1) (value "E147D") (footprint "Package_DIP:DIP-16_W7.62mm")
    )
    (path "/00000000-0000-0000-0000-000062661435"
      (reference "DEK2") (unit 1) (value "E147D") (footprint "Package_DIP:DIP-16_W7.62mm")
    )
    (path "/00000000-0000-0000-0000-000062659f3e"
      (reference "E4") (unit 1) (value "Conn_01x01_Female") (footprint "Connector_PinSocket_2.54mm:PinSocket_1x01_P2.54mm_Vertical")
    )
    (path "/00000000-0000-0000-0000-00006265a705"
      (reference "GND1") (unit 1) (value "Conn_01x01_Female") (footprint "Connector_PinSocket_2.54mm:PinSocket_1x01_P2.54mm_Vertical")
    )
    (path "/c08070a8-8b4e-4a80-aa2b-80a2140160d7"
      (reference "J1") (unit 1) (value "Conn_01x04") (footprint "Connector_PinSocket_2.54mm:PinSocket_1x04_P2.54mm_Vertical")
    )
    (path "/fbf93733-a27a-4e7e-997f-2c561c90c6c2"
      (reference "J2") (unit 1) (value "Conn_01x04") (footprint "Connector_PinSocket_2.54mm:PinSocket_1x04_P2.54mm_Vertical")
    )
    (path "/00000000-0000-0000-0000-0000626d04bc"
      (reference "R1") (unit 1) (value "R") (footprint "Resistor_THT:R_Axial_DIN0207_L6.3mm_D2.5mm_P10.16mm_Horizontal")
    )
    (path "/00000000-0000-0000-0000-0000626d0260"
      (reference "R2") (unit 1) (value "R") (footprint "Resistor_THT:R_Axial_DIN0207_L6.3mm_D2.5mm_P10.16mm_Horizontal")
    )
    (path "/00000000-0000-0000-0000-00006269bd2e"
      (reference "R3") (unit 1) (value "R") (footprint "Resistor_THT:R_Axial_DIN0207_L6.3mm_D2.5mm_P10.16mm_Horizontal")
    )
    (path "/00000000-0000-0000-0000-00006269ecd3"
      (reference "R4") (unit 1) (value "R") (footprint "Resistor_THT:R_Axial_DIN0207_L6.3mm_D2.5mm_P10.16mm_Horizontal")
    )
    (path "/00000000-0000-0000-0000-0000626c157e"
      (reference "R5") (unit 1) (value "R") (footprint "Resistor_THT:R_Axial_DIN0207_L6.3mm_D2.5mm_P10.16mm_Horizontal")
    )
    (path "/00000000-0000-0000-0000-00006269f094"
      (reference "R6") (unit 1) (value "R") (footprint "Resistor_THT:R_Axial_DIN0207_L6.3mm_D2.5mm_P10.16mm_Horizontal")
    )
    (path "/00000000-0000-0000-0000-0000626b6aae"
      (reference "R7") (unit 1) (value "R") (footprint "Resistor_THT:R_Axial_DIN0207_L6.3mm_D2.5mm_P10.16mm_Horizontal")
    )
    (path "/00000000-0000-0000-0000-0000626c343c"
      (reference "R8") (unit 1) (value "R") (footprint "Resistor_THT:R_Axial_DIN0207_L6.3mm_D2.5mm_P10.16mm_Horizontal")
    )
    (path "/00000000-0000-0000-0000-00006269f67b"
      (reference "R9") (unit 1) (value "R") (footprint "Resistor_THT:R_Axial_DIN0207_L6.3mm_D2.5mm_P10.16mm_Horizontal")
    )
    (path "/00000000-0000-0000-0000-0000626be022"
      (reference "R10") (unit 1) (value "R") (footprint "Resistor_THT:R_Axial_DIN0207_L6.3mm_D2.5mm_P10.16mm_Horizontal")
    )
    (path "/00000000-0000-0000-0000-0000626c2b95"
      (reference "R11") (unit 1) (value "R") (footprint "Resistor_THT:R_Axial_DIN0207_L6.3mm_D2.5mm_P10.16mm_Horizontal")
    )
    (path "/00000000-0000-0000-0000-0000626be298"
      (reference "R12") (unit 1) (value "R") (footprint "Resistor_THT:R_Axial_DIN0207_L6.3mm_D2.5mm_P10.16mm_Horizontal")
    )
    (path "/00000000-0000-0000-0000-0000626c2780"
      (reference "R13") (unit 1) (value "R") (footprint "Resistor_THT:R_Axial_DIN0207_L6.3mm_D2.5mm_P10.16mm_Horizontal")
    )
    (path "/00000000-0000-0000-0000-0000626c20b3"
      (reference "R14") (unit 1) (value "R") (footprint "Resistor_THT:R_Axial_DIN0207_L6.3mm_D2.5mm_P10.16mm_Horizontal")
    )
    (path "/00000000-0000-0000-0000-0000626841e2"
      (reference "Seg1") (unit 1) (value "7Segment") (footprint "Display_7Segment:7SegmentLED_LTS6760_LTS6780")
    )
    (path "/00000000-0000-0000-0000-000062685897"
      (reference "Seg2") (unit 1) (value "7Segment") (footprint "Display_7Segment:7SegmentLED_LTS6760_LTS6780")
    )
    (path "/00000000-0000-0000-0000-00006267943e"
      (reference "SensKrk1") (unit 1) (value "SensorKrok") (footprint "krokomer:Krokomer")
    )
    (path "/00000000-0000-0000-0000-00006265aae6"
      (reference "UCC1") (unit 1) (value "Conn_01x01_Female") (footprint "Connector_PinSocket_2.54mm:PinSocket_1x01_P2.54mm_Vertical")
    )
  )
)
