EESchema Schematic File Version 4
EELAYER 30 0
EELAYER END
$Descr A4 11693 8268
encoding utf-8
Sheet 1 1
Title ""
Date ""
Rev ""
Comp ""
Comment1 ""
Comment2 ""
Comment3 ""
Comment4 ""
$EndDescr
$Comp
L Connector:Conn_01x01_Female E4
U 1 1 62659F3E
P 5850 4650
F 0 "E4" H 5742 4517 50  0000 C CNN
F 1 "Conn_01x01_Female" H 5742 4516 50  0001 C CNN
F 2 "Connector_PinHeader_1.00mm:PinHeader_1x01_P1.00mm_Vertical" H 5850 4650 50  0001 C CNN
F 3 "~" H 5850 4650 50  0001 C CNN
	1    5850 4650
	1    0    0    1   
$EndComp
$Comp
L krokomer:E147D DEK1
U 1 1 6265F389
P 3650 1700
F 0 "DEK1" H 3500 2515 50  0000 C CNN
F 1 "E147D" H 3500 2424 50  0000 C CNN
F 2 "Package_DIP:DIP-16_W7.62mm" H 3600 1700 50  0001 C CNN
F 3 "" H 3600 1700 50  0001 C CNN
	1    3650 1700
	1    0    0    -1  
$EndComp
$Comp
L krokomer:E147D DEK2
U 1 1 62661435
P 3650 3150
F 0 "DEK2" H 3500 3965 50  0000 C CNN
F 1 "E147D" H 3500 3874 50  0000 C CNN
F 2 "Package_DIP:DIP-16_W7.62mm" H 3600 3150 50  0001 C CNN
F 3 "" H 3600 3150 50  0001 C CNN
	1    3650 3150
	1    0    0    -1  
$EndComp
Wire Wire Line
	2100 2050 3000 2050
Wire Wire Line
	3000 1900 2550 1900
Wire Wire Line
	2550 1900 2550 1200
Wire Wire Line
	2800 1150 3000 1150
Wire Wire Line
	2350 3350 3000 3350
Wire Wire Line
	2700 2600 3000 2600
Wire Wire Line
	2700 3500 3000 3500
Wire Wire Line
	4000 850  4000 1150
Wire Wire Line
	4000 2600 4150 2600
Wire Wire Line
	2100 850  4000 850 
Connection ~ 4000 850 
Wire Wire Line
	4000 850  4150 850 
$Comp
L krokomer:SensorKrok SensKrk1
U 1 1 6267943E
P 2900 4600
F 0 "SensKrk1" H 3778 4851 50  0000 L CNN
F 1 "SensorKrok" H 3778 4760 50  0000 L CNN
F 2 "krokomer:Krokomer" H 2900 4600 50  0001 C CNN
F 3 "" H 2900 4600 50  0001 C CNN
	1    2900 4600
	1    0    0    -1  
$EndComp
Wire Wire Line
	2100 4650 2700 4650
Wire Wire Line
	2700 4650 2700 4350
Wire Wire Line
	3200 4450 3200 4650
Wire Wire Line
	3200 4650 5650 4650
Wire Wire Line
	2700 4350 2900 4350
Wire Wire Line
	3000 3650 2900 3650
Wire Wire Line
	2900 3650 2900 4350
Connection ~ 2900 4350
Wire Wire Line
	2900 4350 3200 4350
Wire Wire Line
	3000 2200 2900 2200
Wire Wire Line
	2900 2200 2900 3650
Connection ~ 2900 3650
$Comp
L krokomer:7Segment Seg1
U 1 1 626841E2
P 5200 2100
F 0 "Seg1" H 5378 2596 50  0000 L CNN
F 1 "7Segment" H 5378 2505 50  0000 L CNN
F 2 "Display_7Segment:7SegmentLED_LTS6760_LTS6780" H 5200 1950 50  0001 C CNN
F 3 "" H 5200 1950 50  0001 C CNN
	1    5200 2100
	1    0    0    -1  
$EndComp
$Comp
L krokomer:7Segment Seg2
U 1 1 62685897
P 5200 3700
F 0 "Seg2" H 5378 4196 50  0000 L CNN
F 1 "7Segment" H 5378 4105 50  0000 L CNN
F 2 "Display_7Segment:7SegmentLED_LTS6760_LTS6780" H 5200 3550 50  0001 C CNN
F 3 "" H 5200 3550 50  0001 C CNN
	1    5200 3700
	1    0    0    -1  
$EndComp
Wire Wire Line
	4850 650  4850 1050
Wire Wire Line
	4000 1450 4250 1450
Wire Wire Line
	4250 700  4700 700 
Wire Wire Line
	4700 700  4700 1050
Wire Wire Line
	4000 1600 4300 1600
Wire Wire Line
	4300 750  5150 750 
Wire Wire Line
	5150 750  5150 1050
Wire Wire Line
	4000 1750 4350 1750
Wire Wire Line
	4350 800  5300 800 
Wire Wire Line
	5300 800  5300 1050
Wire Wire Line
	4000 1900 4400 1900
Wire Wire Line
	4400 2300 5150 2300
Wire Wire Line
	5150 2300 5150 2250
Wire Wire Line
	4000 2050 4350 2050
Wire Wire Line
	4350 2350 4850 2350
Wire Wire Line
	4850 2350 4850 2250
Wire Wire Line
	4700 2250 4700 2400
Wire Wire Line
	4700 2400 4300 2400
Wire Wire Line
	4300 2500 4850 2500
Wire Wire Line
	4850 2500 4850 2650
Wire Wire Line
	4000 2900 4350 2900
Wire Wire Line
	4350 2550 4700 2550
Wire Wire Line
	4700 2550 4700 2650
Wire Wire Line
	4000 3050 4400 3050
Wire Wire Line
	4400 2600 5150 2600
Wire Wire Line
	5150 2600 5150 2650
Wire Wire Line
	4000 3200 4450 3200
Wire Wire Line
	4450 2450 5300 2450
Wire Wire Line
	5300 2450 5300 2650
Wire Wire Line
	4000 3350 4100 3350
Wire Wire Line
	4100 4050 5150 4050
Wire Wire Line
	5150 4050 5150 3850
Wire Wire Line
	4000 3500 4150 3500
Wire Wire Line
	4150 4000 4850 4000
Wire Wire Line
	4850 4000 4850 3850
Wire Wire Line
	4700 3850 4700 3950
Wire Wire Line
	4700 3950 4250 3950
Wire Wire Line
	4250 3650 4000 3650
Wire Wire Line
	2100 4100 5000 4100
Wire Wire Line
	5650 4100 5650 2550
Wire Wire Line
	5650 2550 5000 2550
Wire Wire Line
	5000 3850 5000 4100
Connection ~ 5000 4100
Wire Wire Line
	5000 4100 5650 4100
$Comp
L Connector:Conn_01x01_Female GND1
U 1 1 6265A705
P 1900 4650
F 0 "GND1" H 1792 4743 50  0000 C CNN
F 1 "Conn_01x01_Female" H 1792 4516 50  0001 C CNN
F 2 "Connector_PinHeader_1.00mm:PinHeader_1x01_P1.00mm_Vertical" H 1900 4650 50  0001 C CNN
F 3 "~" H 1900 4650 50  0001 C CNN
	1    1900 4650
	-1   0    0    -1  
$EndComp
$Comp
L Connector:Conn_01x01_Female D4
U 1 1 6265974F
P 1900 4100
F 0 "D4" H 1792 4193 50  0000 C CNN
F 1 "Conn_01x01_Female" H 1792 3966 50  0001 C CNN
F 2 "Connector_PinHeader_1.00mm:PinHeader_1x01_P1.00mm_Vertical" H 1900 4100 50  0001 C CNN
F 3 "~" H 1900 4100 50  0001 C CNN
	1    1900 4100
	-1   0    0    -1  
$EndComp
$Comp
L Connector:Conn_01x01_Female UCC1
U 1 1 6265AAE6
P 1900 850
F 0 "UCC1" H 1792 717 50  0000 C CNN
F 1 "Conn_01x01_Female" H 1792 716 50  0001 C CNN
F 2 "Connector_PinHeader_1.00mm:PinHeader_1x01_P1.00mm_Vertical" H 1900 850 50  0001 C CNN
F 3 "~" H 1900 850 50  0001 C CNN
	1    1900 850 
	-1   0    0    1   
$EndComp
$Comp
L Connector:Conn_01x04_Female B1
U 1 1 626819E1
P 1800 1400
F 0 "B1" H 1692 975 50  0000 C CNN
F 1 "Conn_01x04_Female" H 1692 1066 50  0000 C CNN
F 2 "Connector_PinHeader_1.00mm:PinHeader_1x04_P1.00mm_Vertical" H 1800 1400 50  0001 C CNN
F 3 "~" H 1800 1400 50  0001 C CNN
	1    1800 1400
	-1   0    0    1   
$EndComp
Wire Wire Line
	2000 1200 2550 1200
Wire Wire Line
	2000 1300 3000 1300
Wire Wire Line
	2800 1400 2000 1400
Wire Wire Line
	2800 1400 2800 1150
Wire Wire Line
	2000 1500 2100 1500
Wire Wire Line
	2100 1500 2100 2050
$Comp
L Connector:Conn_01x04_Female G1
U 1 1 6269334E
P 1800 2850
F 0 "G1" H 1692 2425 50  0000 C CNN
F 1 "Conn_01x04_Female" H 1692 2516 50  0000 C CNN
F 2 "Connector_PinHeader_1.00mm:PinHeader_1x04_P1.00mm_Vertical" H 1800 2850 50  0001 C CNN
F 3 "~" H 1800 2850 50  0001 C CNN
	1    1800 2850
	-1   0    0    1   
$EndComp
Wire Wire Line
	2000 2750 3000 2750
Wire Wire Line
	2000 2650 2350 2650
Wire Wire Line
	2350 2650 2350 3350
Wire Wire Line
	2000 2850 2700 2850
Wire Wire Line
	2700 2850 2700 2600
Wire Wire Line
	2000 2950 2700 2950
Wire Wire Line
	2700 2950 2700 3500
Wire Wire Line
	4200 650  4850 650 
Wire Wire Line
	4000 1300 4200 1300
Wire Wire Line
	4150 2600 4150 850 
$Comp
L Device:R R3
U 1 1 6269BD2E
P 4200 1000
F 0 "R3" H 4270 1046 50  0000 L CNN
F 1 "R" H 4270 955 50  0000 L CNN
F 2 "Resistor_THT:R_Axial_DIN0207_L6.3mm_D2.5mm_P10.16mm_Horizontal" V 4130 1000 50  0001 C CNN
F 3 "~" H 4200 1000 50  0001 C CNN
	1    4200 1000
	1    0    0    -1  
$EndComp
$Comp
L Device:R R4
U 1 1 6269ECD3
P 4250 1150
F 0 "R4" H 4320 1196 50  0000 L CNN
F 1 "R" H 4320 1105 50  0000 L CNN
F 2 "Resistor_THT:R_Axial_DIN0207_L6.3mm_D2.5mm_P10.16mm_Horizontal" V 4180 1150 50  0001 C CNN
F 3 "~" H 4250 1150 50  0001 C CNN
	1    4250 1150
	1    0    0    -1  
$EndComp
$Comp
L Device:R R6
U 1 1 6269F094
P 4300 1250
F 0 "R6" H 4370 1296 50  0000 L CNN
F 1 "R" H 4370 1205 50  0000 L CNN
F 2 "Resistor_THT:R_Axial_DIN0207_L6.3mm_D2.5mm_P10.16mm_Horizontal" V 4230 1250 50  0001 C CNN
F 3 "~" H 4300 1250 50  0001 C CNN
	1    4300 1250
	1    0    0    -1  
$EndComp
$Comp
L Device:R R9
U 1 1 6269F67B
P 4350 1350
F 0 "R9" H 4420 1396 50  0000 L CNN
F 1 "R" H 4420 1305 50  0000 L CNN
F 2 "Resistor_THT:R_Axial_DIN0207_L6.3mm_D2.5mm_P10.16mm_Horizontal" V 4280 1350 50  0001 C CNN
F 3 "~" H 4350 1350 50  0001 C CNN
	1    4350 1350
	1    0    0    -1  
$EndComp
Wire Wire Line
	4200 650  4200 850 
Wire Wire Line
	4200 1300 4200 1150
Wire Wire Line
	4250 700  4250 1000
Wire Wire Line
	4250 1300 4250 1450
Wire Wire Line
	4300 1100 4300 750 
Wire Wire Line
	4300 1400 4300 1600
Wire Wire Line
	4350 1500 4350 1750
Wire Wire Line
	4350 1200 4350 800 
$Comp
L Device:R R7
U 1 1 626B6AAE
P 4300 2250
F 0 "R7" H 4370 2296 50  0000 L CNN
F 1 "R" H 4370 2205 50  0000 L CNN
F 2 "Resistor_THT:R_Axial_DIN0207_L6.3mm_D2.5mm_P10.16mm_Horizontal" V 4230 2250 50  0001 C CNN
F 3 "~" H 4300 2250 50  0001 C CNN
	1    4300 2250
	1    0    0    -1  
$EndComp
Wire Wire Line
	4300 2100 4000 2100
Wire Wire Line
	4000 2100 4000 2200
$Comp
L Device:R R10
U 1 1 626BE022
P 4350 2200
F 0 "R10" H 4420 2246 50  0000 L CNN
F 1 "R" H 4420 2155 50  0000 L CNN
F 2 "Resistor_THT:R_Axial_DIN0207_L6.3mm_D2.5mm_P10.16mm_Horizontal" V 4280 2200 50  0001 C CNN
F 3 "~" H 4350 2200 50  0001 C CNN
	1    4350 2200
	1    0    0    -1  
$EndComp
$Comp
L Device:R R12
U 1 1 626BE298
P 4400 2150
F 0 "R12" H 4470 2196 50  0000 L CNN
F 1 "R" H 4470 2105 50  0000 L CNN
F 2 "Resistor_THT:R_Axial_DIN0207_L6.3mm_D2.5mm_P10.16mm_Horizontal" V 4330 2150 50  0001 C CNN
F 3 "~" H 4400 2150 50  0001 C CNN
	1    4400 2150
	1    0    0    -1  
$EndComp
Wire Wire Line
	4400 1900 4400 2000
$Comp
L Device:R R5
U 1 1 626C157E
P 4250 3800
F 0 "R5" H 4320 3846 50  0000 L CNN
F 1 "R" H 4320 3755 50  0000 L CNN
F 2 "Resistor_THT:R_Axial_DIN0207_L6.3mm_D2.5mm_P10.16mm_Horizontal" V 4180 3800 50  0001 C CNN
F 3 "~" H 4250 3800 50  0001 C CNN
	1    4250 3800
	1    0    0    -1  
$EndComp
$Comp
L Device:R R14
U 1 1 626C20B3
P 4450 3050
F 0 "R14" H 4520 3096 50  0000 L CNN
F 1 "R" H 4520 3005 50  0000 L CNN
F 2 "Resistor_THT:R_Axial_DIN0207_L6.3mm_D2.5mm_P10.16mm_Horizontal" V 4380 3050 50  0001 C CNN
F 3 "~" H 4450 3050 50  0001 C CNN
	1    4450 3050
	1    0    0    -1  
$EndComp
$Comp
L Device:R R13
U 1 1 626C2780
P 4400 2900
F 0 "R13" H 4470 2946 50  0000 L CNN
F 1 "R" H 4470 2855 50  0000 L CNN
F 2 "Resistor_THT:R_Axial_DIN0207_L6.3mm_D2.5mm_P10.16mm_Horizontal" V 4330 2900 50  0001 C CNN
F 3 "~" H 4400 2900 50  0001 C CNN
	1    4400 2900
	1    0    0    -1  
$EndComp
$Comp
L Device:R R11
U 1 1 626C2B95
P 4350 2750
F 0 "R11" H 4420 2796 50  0000 L CNN
F 1 "R" H 4420 2705 50  0000 L CNN
F 2 "Resistor_THT:R_Axial_DIN0207_L6.3mm_D2.5mm_P10.16mm_Horizontal" V 4280 2750 50  0001 C CNN
F 3 "~" H 4350 2750 50  0001 C CNN
	1    4350 2750
	1    0    0    -1  
$EndComp
$Comp
L Device:R R8
U 1 1 626C343C
P 4300 2650
F 0 "R8" H 4370 2696 50  0000 L CNN
F 1 "R" H 4370 2605 50  0000 L CNN
F 2 "Resistor_THT:R_Axial_DIN0207_L6.3mm_D2.5mm_P10.16mm_Horizontal" V 4230 2650 50  0001 C CNN
F 3 "~" H 4300 2650 50  0001 C CNN
	1    4300 2650
	1    0    0    -1  
$EndComp
Wire Wire Line
	4300 2800 4000 2800
Wire Wire Line
	4000 2800 4000 2750
Wire Wire Line
	4350 2600 4350 2550
Wire Wire Line
	4400 2600 4400 2750
Wire Wire Line
	4450 2900 4450 2450
$Comp
L Device:R R2
U 1 1 626D0260
P 4150 3850
F 0 "R2" H 4220 3896 50  0000 L CNN
F 1 "R" H 4220 3805 50  0000 L CNN
F 2 "Resistor_THT:R_Axial_DIN0207_L6.3mm_D2.5mm_P10.16mm_Horizontal" V 4080 3850 50  0001 C CNN
F 3 "~" H 4150 3850 50  0001 C CNN
	1    4150 3850
	1    0    0    -1  
$EndComp
$Comp
L Device:R R1
U 1 1 626D04BC
P 4100 3900
F 0 "R1" H 4170 3946 50  0000 L CNN
F 1 "R" H 4170 3855 50  0000 L CNN
F 2 "Resistor_THT:R_Axial_DIN0207_L6.3mm_D2.5mm_P10.16mm_Horizontal" V 4030 3900 50  0001 C CNN
F 3 "~" H 4100 3900 50  0001 C CNN
	1    4100 3900
	1    0    0    -1  
$EndComp
Wire Wire Line
	4100 3750 4100 3350
Wire Wire Line
	4150 3500 4150 3700
Wire Wire Line
	5000 2250 5000 2550
$EndSCHEMATC
