ASxxxx Assembler V02.00 + NoICE + SDCC mods  (STMicroelectronics STM8), page 1.
Hexadecimal [24-Bits]

Symbol Table

    .__.$$$.                                                    =  002710 L
    .__.ABS.                                                    =  000000 G
    .__.CPU.                                                    =  000000 L
    .__.H$L.                                                    =  000001 L
  9 A$delay$100                                                    000016 GR
  9 A$delay$101                                                    000019 GR
  9 A$delay$105                                                    00001A GR
  9 A$delay$106                                                    00001B GR
  9 A$delay$107                                                    00001D GR
  9 A$delay$110                                                    00001F GR
  9 A$delay$111                                                    000021 GR
  9 A$delay$112                                                    000023 GR
  9 A$delay$113                                                    000025 GR
  9 A$delay$114                                                    000027 GR
  9 A$delay$115                                                    000029 GR
  9 A$delay$116                                                    00002B GR
  9 A$delay$121                                                    00002D GR
  9 A$delay$123                                                    00002F GR
  9 A$delay$125                                                    000031 GR
  9 A$delay$126                                                    000034 GR
  9 A$delay$128                                                    000035 GR
  9 A$delay$129                                                    000036 GR
  9 A$delay$133                                                    000038 GR
  9 A$delay$135                                                    00003A GR
  9 A$delay$137                                                    00003C GR
  9 A$delay$138                                                    00003F GR
  9 A$delay$143                                                    000040 GR
  9 A$delay$144                                                    000042 GR
  9 A$delay$145                                                    000043 GR
  9 A$delay$146                                                    000045 GR
  9 A$delay$147                                                    000047 GR
  9 A$delay$148                                                    000049 GR
  9 A$delay$149                                                    00004A GR
  9 A$delay$150                                                    00004C GR
  9 A$delay$155                                                    00004E GR
  9 A$delay$159                                                    000050 GR
  9 A$delay$64                                                     000000 GR
  9 A$delay$66                                                     000002 GR
  9 A$delay$68                                                     000004 GR
  9 A$delay$70                                                     000006 GR
  9 A$delay$71                                                     000009 GR
  9 A$delay$75                                                     00000B GR
  9 A$delay$77                                                     00000D GR
  9 A$delay$78                                                     000010 GR
  9 A$delay$84                                                     000011 GR
  9 A$delay$93                                                     000012 GR
  9 A$delay$97                                                     000014 GR
  9 A$delay$98                                                     000015 GR
 10 Ldebug_CIE0_end                                                000012 R
 10 Ldebug_CIE0_start                                              000004 R
 10 Ldebug_CIE1_end                                                000088 R
 10 Ldebug_CIE1_start                                              00007A R
  D Ldebug_abbrev                                                  000000 R
  E Ldebug_info_end                                                0000B5 R
  E Ldebug_info_start                                              000004 R
ASxxxx Assembler V02.00 + NoICE + SDCC mods  (STMicroelectronics STM8), page 2.
Hexadecimal [24-Bits]

Symbol Table

  B Ldebug_line_end                                                0000D0 R
  B Ldebug_line_start                                              000004 R
  B Ldebug_line_stmt                                               00007A R
  C Ldebug_loc_start                                               000000 R
  F Ldebug_pubnames_end                                            000033 R
  F Ldebug_pubnames_start                                          000004 R
  9 Sdelay$delay_05s$13                                         =  000012 GR
  9 Sdelay$delay_05s$14                                         =  000012 GR
  9 Sdelay$delay_05s$15                                         =  000014 GR
  9 Sdelay$delay_05s$16                                         =  000014 GR
  9 Sdelay$delay_05s$17                                         =  000016 GR
  9 Sdelay$delay_05s$18                                         =  00001A GR
  9 Sdelay$delay_05s$19                                         =  00001A GR
  9 Sdelay$delay_05s$20                                         =  00001F GR
  9 Sdelay$delay_05s$21                                         =  00002D GR
  9 Sdelay$delay_05s$22                                         =  00002D GR
  9 Sdelay$delay_05s$23                                         =  00002F GR
  9 Sdelay$delay_05s$24                                         =  000031 GR
  9 Sdelay$delay_05s$25                                         =  000035 GR
  9 Sdelay$delay_05s$26                                         =  000038 GR
  9 Sdelay$delay_05s$27                                         =  000038 GR
  9 Sdelay$delay_05s$28                                         =  00003A GR
  9 Sdelay$delay_05s$29                                         =  00003C GR
  9 Sdelay$delay_05s$30                                         =  000040 GR
  9 Sdelay$delay_05s$31                                         =  000040 GR
  9 Sdelay$delay_05s$32                                         =  000040 GR
  9 Sdelay$delay_05s$33                                         =  00004E GR
  9 Sdelay$delay_05s$34                                         =  00004E GR
  9 Sdelay$delay_05s$35                                         =  000050 GR
  9 Sdelay$delay_05s$36                                         =  000050 GR
  9 Sdelay$delay_05s$37                                         =  000051 GR
  9 Sdelay$delay_05s_init$0                                     =  000000 GR
  9 Sdelay$delay_05s_init$1                                     =  000000 GR
  9 Sdelay$delay_05s_init$10                                    =  000011 GR
  9 Sdelay$delay_05s_init$11                                    =  000011 GR
  9 Sdelay$delay_05s_init$12                                    =  000012 GR
  9 Sdelay$delay_05s_init$2                                     =  000000 GR
  9 Sdelay$delay_05s_init$3                                     =  000002 GR
  9 Sdelay$delay_05s_init$4                                     =  000004 GR
  9 Sdelay$delay_05s_init$5                                     =  000006 GR
  9 Sdelay$delay_05s_init$6                                     =  00000B GR
  9 Sdelay$delay_05s_init$7                                     =  00000B GR
  9 Sdelay$delay_05s_init$8                                     =  00000D GR
  9 Sdelay$delay_05s_init$9                                     =  000011 GR
  9 XG$delay_05s$0$0                                            =  000050 GR
  9 XG$delay_05s_init$0$0                                       =  000011 GR
    _TIM3_ClearFlag                                                ****** GX
    _TIM3_Cmd                                                      ****** GX
    _TIM3_GetFlagStatus                                            ****** GX
    _TIM3_SetCounter                                               ****** GX
    _TIM3_TimeBaseInit                                             ****** GX
  9 _delay_05s                                                     000012 GR
  9 _delay_05s_init                                                000000 GR

ASxxxx Assembler V02.00 + NoICE + SDCC mods  (STMicroelectronics STM8), page 3.
Hexadecimal [24-Bits]

Area Table

   0 _CODE                                      size      0   flags    0
   1 DATA                                       size      0   flags    0
   2 INITIALIZED                                size      0   flags    0
   3 DABS                                       size      0   flags    8
   4 HOME                                       size      0   flags    0
   5 GSINIT                                     size      0   flags    0
   6 GSFINAL                                    size      0   flags    0
   7 CONST                                      size      0   flags    0
   8 INITIALIZER                                size      0   flags    0
   9 CODE                                       size     51   flags    0
   A CABS                                       size      0   flags    8
   B .debug_line                                size     D0   flags  100
   C .debug_loc                                 size     F4   flags  100
   D .debug_abbrev                              size     61   flags  100
   E .debug_info                                size     B5   flags  100
   F .debug_pubnames                            size     33   flags  100
  10 .debug_frame                               size     C9   flags  100

