                                      1 ;--------------------------------------------------------
                                      2 ; File Created by SDCC : free open source ANSI-C Compiler
                                      3 ; Version 4.1.0 #12072 (MINGW64)
                                      4 ;--------------------------------------------------------
                                      5 	.module delay
                                      6 	.optsdcc -mstm8
                                      7 	
                                      8 ;--------------------------------------------------------
                                      9 ; Public variables in this module
                                     10 ;--------------------------------------------------------
                                     11 	.globl _TIM3_ClearFlag
                                     12 	.globl _TIM3_GetFlagStatus
                                     13 	.globl _TIM3_SetCounter
                                     14 	.globl _TIM3_Cmd
                                     15 	.globl _TIM3_TimeBaseInit
                                     16 	.globl _delay_05s_init
                                     17 	.globl _delay_05s
                                     18 ;--------------------------------------------------------
                                     19 ; ram data
                                     20 ;--------------------------------------------------------
                                     21 	.area DATA
                                     22 ;--------------------------------------------------------
                                     23 ; ram data
                                     24 ;--------------------------------------------------------
                                     25 	.area INITIALIZED
                                     26 ;--------------------------------------------------------
                                     27 ; absolute external ram data
                                     28 ;--------------------------------------------------------
                                     29 	.area DABS (ABS)
                                     30 
                                     31 ; default segment ordering for linker
                                     32 	.area HOME
                                     33 	.area GSINIT
                                     34 	.area GSFINAL
                                     35 	.area CONST
                                     36 	.area INITIALIZER
                                     37 	.area CODE
                                     38 
                                     39 ;--------------------------------------------------------
                                     40 ; global & static initialisations
                                     41 ;--------------------------------------------------------
                                     42 	.area HOME
                                     43 	.area GSINIT
                                     44 	.area GSFINAL
                                     45 	.area GSINIT
                                     46 ;--------------------------------------------------------
                                     47 ; Home
                                     48 ;--------------------------------------------------------
                                     49 	.area HOME
                                     50 	.area HOME
                                     51 ;--------------------------------------------------------
                                     52 ; code
                                     53 ;--------------------------------------------------------
                                     54 	.area CODE
                           000000    55 	Sdelay$delay_05s_init$0 ==.
                                     56 ;	app/src/delay.c: 4: void delay_05s_init(void)
                                     57 ;	-----------------------------------------
                                     58 ;	 function delay_05s_init
                                     59 ;	-----------------------------------------
      000000                         60 _delay_05s_init:
                           000000    61 	Sdelay$delay_05s_init$1 ==.
                           000000    62 	Sdelay$delay_05s_init$2 ==.
                                     63 ;	app/src/delay.c: 6: TIM3_TimeBaseInit(TIM3_PRESCALER_256,31499);
      000000 4B 0B            [ 1]   64 	push	#0x0b
                           000002    65 	Sdelay$delay_05s_init$3 ==.
      000002 4B 7B            [ 1]   66 	push	#0x7b
                           000004    67 	Sdelay$delay_05s_init$4 ==.
      000004 4B 08            [ 1]   68 	push	#0x08
                           000006    69 	Sdelay$delay_05s_init$5 ==.
      000006 CDr00r00         [ 4]   70 	call	_TIM3_TimeBaseInit
      000009 5B 03            [ 2]   71 	addw	sp, #3
                           00000B    72 	Sdelay$delay_05s_init$6 ==.
                           00000B    73 	Sdelay$delay_05s_init$7 ==.
                                     74 ;	app/src/delay.c: 7: TIM3_Cmd(ENABLE);
      00000B 4B 01            [ 1]   75 	push	#0x01
                           00000D    76 	Sdelay$delay_05s_init$8 ==.
      00000D CDr00r00         [ 4]   77 	call	_TIM3_Cmd
      000010 84               [ 1]   78 	pop	a
                           000011    79 	Sdelay$delay_05s_init$9 ==.
                           000011    80 	Sdelay$delay_05s_init$10 ==.
                                     81 ;	app/src/delay.c: 9: }
                           000011    82 	Sdelay$delay_05s_init$11 ==.
                           000011    83 	XG$delay_05s_init$0$0 ==.
      000011 81               [ 4]   84 	ret
                           000012    85 	Sdelay$delay_05s_init$12 ==.
                           000012    86 	Sdelay$delay_05s$13 ==.
                                     87 ;	app/src/delay.c: 10: void delay_05s(uint32_t time_s){//kolikrát přeteče
                                     88 ;	-----------------------------------------
                                     89 ;	 function delay_05s
                                     90 ;	-----------------------------------------
      000012                         91 _delay_05s:
                           000012    92 	Sdelay$delay_05s$14 ==.
      000012 52 04            [ 2]   93 	sub	sp, #4
                           000014    94 	Sdelay$delay_05s$15 ==.
                           000014    95 	Sdelay$delay_05s$16 ==.
                                     96 ;	app/src/delay.c: 11: TIM3_SetCounter(0);
      000014 5F               [ 1]   97 	clrw	x
      000015 89               [ 2]   98 	pushw	x
                           000016    99 	Sdelay$delay_05s$17 ==.
      000016 CDr00r00         [ 4]  100 	call	_TIM3_SetCounter
      000019 85               [ 2]  101 	popw	x
                           00001A   102 	Sdelay$delay_05s$18 ==.
                           00001A   103 	Sdelay$delay_05s$19 ==.
                                    104 ;	app/src/delay.c: 12: for(uint32_t i=0;i<time_s;i++){
      00001A 5F               [ 1]  105 	clrw	x
      00001B 1F 03            [ 2]  106 	ldw	(0x03, sp), x
      00001D 1F 01            [ 2]  107 	ldw	(0x01, sp), x
                           00001F   108 	Sdelay$delay_05s$20 ==.
      00001F                        109 00106$:
      00001F 1E 03            [ 2]  110 	ldw	x, (0x03, sp)
      000021 13 09            [ 2]  111 	cpw	x, (0x09, sp)
      000023 7B 02            [ 1]  112 	ld	a, (0x02, sp)
      000025 12 08            [ 1]  113 	sbc	a, (0x08, sp)
      000027 7B 01            [ 1]  114 	ld	a, (0x01, sp)
      000029 12 07            [ 1]  115 	sbc	a, (0x07, sp)
      00002B 24 21            [ 1]  116 	jrnc	00108$
                           00002D   117 	Sdelay$delay_05s$21 ==.
                           00002D   118 	Sdelay$delay_05s$22 ==.
                                    119 ;	app/src/delay.c: 13: while (TIM3_GetFlagStatus(TIM3_FLAG_UPDATE) != SET)
      00002D                        120 00101$:
      00002D 4B 01            [ 1]  121 	push	#0x01
                           00002F   122 	Sdelay$delay_05s$23 ==.
      00002F 4B 00            [ 1]  123 	push	#0x00
                           000031   124 	Sdelay$delay_05s$24 ==.
      000031 CDr00r00         [ 4]  125 	call	_TIM3_GetFlagStatus
      000034 85               [ 2]  126 	popw	x
                           000035   127 	Sdelay$delay_05s$25 ==.
      000035 4A               [ 1]  128 	dec	a
      000036 26 F5            [ 1]  129 	jrne	00101$
                           000038   130 	Sdelay$delay_05s$26 ==.
                           000038   131 	Sdelay$delay_05s$27 ==.
                                    132 ;	app/src/delay.c: 15: TIM3_ClearFlag (TIM3_FLAG_UPDATE);
      000038 4B 01            [ 1]  133 	push	#0x01
                           00003A   134 	Sdelay$delay_05s$28 ==.
      00003A 4B 00            [ 1]  135 	push	#0x00
                           00003C   136 	Sdelay$delay_05s$29 ==.
      00003C CDr00r00         [ 4]  137 	call	_TIM3_ClearFlag
      00003F 85               [ 2]  138 	popw	x
                           000040   139 	Sdelay$delay_05s$30 ==.
                           000040   140 	Sdelay$delay_05s$31 ==.
                           000040   141 	Sdelay$delay_05s$32 ==.
                                    142 ;	app/src/delay.c: 12: for(uint32_t i=0;i<time_s;i++){
      000040 1E 03            [ 2]  143 	ldw	x, (0x03, sp)
      000042 5C               [ 1]  144 	incw	x
      000043 1F 03            [ 2]  145 	ldw	(0x03, sp), x
      000045 26 D8            [ 1]  146 	jrne	00106$
      000047 1E 01            [ 2]  147 	ldw	x, (0x01, sp)
      000049 5C               [ 1]  148 	incw	x
      00004A 1F 01            [ 2]  149 	ldw	(0x01, sp), x
      00004C 20 D1            [ 2]  150 	jra	00106$
                           00004E   151 	Sdelay$delay_05s$33 ==.
      00004E                        152 00108$:
                           00004E   153 	Sdelay$delay_05s$34 ==.
                                    154 ;	app/src/delay.c: 17: }
      00004E 5B 04            [ 2]  155 	addw	sp, #4
                           000050   156 	Sdelay$delay_05s$35 ==.
                           000050   157 	Sdelay$delay_05s$36 ==.
                           000050   158 	XG$delay_05s$0$0 ==.
      000050 81               [ 4]  159 	ret
                           000051   160 	Sdelay$delay_05s$37 ==.
                                    161 	.area CODE
                                    162 	.area CONST
                                    163 	.area INITIALIZER
                                    164 	.area CABS (ABS)
                                    165 
                                    166 	.area .debug_line (NOLOAD)
      000000 00 00 00 CC            167 	.dw	0,Ldebug_line_end-Ldebug_line_start
      000004                        168 Ldebug_line_start:
      000004 00 02                  169 	.dw	2
      000006 00 00 00 70            170 	.dw	0,Ldebug_line_stmt-6-Ldebug_line_start
      00000A 01                     171 	.db	1
      00000B 01                     172 	.db	1
      00000C FB                     173 	.db	-5
      00000D 0F                     174 	.db	15
      00000E 0A                     175 	.db	10
      00000F 00                     176 	.db	0
      000010 01                     177 	.db	1
      000011 01                     178 	.db	1
      000012 01                     179 	.db	1
      000013 01                     180 	.db	1
      000014 00                     181 	.db	0
      000015 00                     182 	.db	0
      000016 00                     183 	.db	0
      000017 01                     184 	.db	1
      000018 43 3A 5C 50 72 6F 67   185 	.ascii "C:\Program Files\SDCC\bin\..\include\stm8"
             72 61 6D 20 46 69 6C
             65 73 5C 53 44 43 43
             08 69 6E 5C 2E 2E 5C
             69 6E 63 6C 75 64 65
             5C 73 74 6D 38
      000040 00                     186 	.db	0
      000041 43 3A 5C 50 72 6F 67   187 	.ascii "C:\Program Files\SDCC\bin\..\include"
             72 61 6D 20 46 69 6C
             65 73 5C 53 44 43 43
             08 69 6E 5C 2E 2E 5C
             69 6E 63 6C 75 64 65
      000064 00                     188 	.db	0
      000065 00                     189 	.db	0
      000066 61 70 70 2F 73 72 63   190 	.ascii "app/src/delay.c"
             2F 64 65 6C 61 79 2E
             63
      000075 00                     191 	.db	0
      000076 00                     192 	.uleb128	0
      000077 00                     193 	.uleb128	0
      000078 00                     194 	.uleb128	0
      000079 00                     195 	.db	0
      00007A                        196 Ldebug_line_stmt:
      00007A 00                     197 	.db	0
      00007B 05                     198 	.uleb128	5
      00007C 02                     199 	.db	2
      00007D 00 00r00r00            200 	.dw	0,(Sdelay$delay_05s_init$0)
      000081 03                     201 	.db	3
      000082 03                     202 	.sleb128	3
      000083 01                     203 	.db	1
      000084 09                     204 	.db	9
      000085 00 00                  205 	.dw	Sdelay$delay_05s_init$2-Sdelay$delay_05s_init$0
      000087 03                     206 	.db	3
      000088 02                     207 	.sleb128	2
      000089 01                     208 	.db	1
      00008A 09                     209 	.db	9
      00008B 00 0B                  210 	.dw	Sdelay$delay_05s_init$7-Sdelay$delay_05s_init$2
      00008D 03                     211 	.db	3
      00008E 01                     212 	.sleb128	1
      00008F 01                     213 	.db	1
      000090 09                     214 	.db	9
      000091 00 06                  215 	.dw	Sdelay$delay_05s_init$10-Sdelay$delay_05s_init$7
      000093 03                     216 	.db	3
      000094 02                     217 	.sleb128	2
      000095 01                     218 	.db	1
      000096 09                     219 	.db	9
      000097 00 01                  220 	.dw	1+Sdelay$delay_05s_init$11-Sdelay$delay_05s_init$10
      000099 00                     221 	.db	0
      00009A 01                     222 	.uleb128	1
      00009B 01                     223 	.db	1
      00009C 00                     224 	.db	0
      00009D 05                     225 	.uleb128	5
      00009E 02                     226 	.db	2
      00009F 00 00r00r12            227 	.dw	0,(Sdelay$delay_05s$13)
      0000A3 03                     228 	.db	3
      0000A4 09                     229 	.sleb128	9
      0000A5 01                     230 	.db	1
      0000A6 09                     231 	.db	9
      0000A7 00 02                  232 	.dw	Sdelay$delay_05s$16-Sdelay$delay_05s$13
      0000A9 03                     233 	.db	3
      0000AA 01                     234 	.sleb128	1
      0000AB 01                     235 	.db	1
      0000AC 09                     236 	.db	9
      0000AD 00 06                  237 	.dw	Sdelay$delay_05s$19-Sdelay$delay_05s$16
      0000AF 03                     238 	.db	3
      0000B0 01                     239 	.sleb128	1
      0000B1 01                     240 	.db	1
      0000B2 09                     241 	.db	9
      0000B3 00 13                  242 	.dw	Sdelay$delay_05s$22-Sdelay$delay_05s$19
      0000B5 03                     243 	.db	3
      0000B6 01                     244 	.sleb128	1
      0000B7 01                     245 	.db	1
      0000B8 09                     246 	.db	9
      0000B9 00 0B                  247 	.dw	Sdelay$delay_05s$27-Sdelay$delay_05s$22
      0000BB 03                     248 	.db	3
      0000BC 02                     249 	.sleb128	2
      0000BD 01                     250 	.db	1
      0000BE 09                     251 	.db	9
      0000BF 00 08                  252 	.dw	Sdelay$delay_05s$32-Sdelay$delay_05s$27
      0000C1 03                     253 	.db	3
      0000C2 7D                     254 	.sleb128	-3
      0000C3 01                     255 	.db	1
      0000C4 09                     256 	.db	9
      0000C5 00 0E                  257 	.dw	Sdelay$delay_05s$34-Sdelay$delay_05s$32
      0000C7 03                     258 	.db	3
      0000C8 05                     259 	.sleb128	5
      0000C9 01                     260 	.db	1
      0000CA 09                     261 	.db	9
      0000CB 00 03                  262 	.dw	1+Sdelay$delay_05s$36-Sdelay$delay_05s$34
      0000CD 00                     263 	.db	0
      0000CE 01                     264 	.uleb128	1
      0000CF 01                     265 	.db	1
      0000D0                        266 Ldebug_line_end:
                                    267 
                                    268 	.area .debug_loc (NOLOAD)
      000000                        269 Ldebug_loc_start:
      000000 00 00r00r50            270 	.dw	0,(Sdelay$delay_05s$35)
      000004 00 00r00r51            271 	.dw	0,(Sdelay$delay_05s$37)
      000008 00 02                  272 	.dw	2
      00000A 78                     273 	.db	120
      00000B 01                     274 	.sleb128	1
      00000C 00 00r00r40            275 	.dw	0,(Sdelay$delay_05s$30)
      000010 00 00r00r50            276 	.dw	0,(Sdelay$delay_05s$35)
      000014 00 02                  277 	.dw	2
      000016 78                     278 	.db	120
      000017 05                     279 	.sleb128	5
      000018 00 00r00r3C            280 	.dw	0,(Sdelay$delay_05s$29)
      00001C 00 00r00r40            281 	.dw	0,(Sdelay$delay_05s$30)
      000020 00 02                  282 	.dw	2
      000022 78                     283 	.db	120
      000023 07                     284 	.sleb128	7
      000024 00 00r00r3A            285 	.dw	0,(Sdelay$delay_05s$28)
      000028 00 00r00r3C            286 	.dw	0,(Sdelay$delay_05s$29)
      00002C 00 02                  287 	.dw	2
      00002E 78                     288 	.db	120
      00002F 06                     289 	.sleb128	6
      000030 00 00r00r38            290 	.dw	0,(Sdelay$delay_05s$26)
      000034 00 00r00r3A            291 	.dw	0,(Sdelay$delay_05s$28)
      000038 00 02                  292 	.dw	2
      00003A 78                     293 	.db	120
      00003B 05                     294 	.sleb128	5
      00003C 00 00r00r35            295 	.dw	0,(Sdelay$delay_05s$25)
      000040 00 00r00r38            296 	.dw	0,(Sdelay$delay_05s$26)
      000044 00 02                  297 	.dw	2
      000046 78                     298 	.db	120
      000047 05                     299 	.sleb128	5
      000048 00 00r00r31            300 	.dw	0,(Sdelay$delay_05s$24)
      00004C 00 00r00r35            301 	.dw	0,(Sdelay$delay_05s$25)
      000050 00 02                  302 	.dw	2
      000052 78                     303 	.db	120
      000053 07                     304 	.sleb128	7
      000054 00 00r00r2F            305 	.dw	0,(Sdelay$delay_05s$23)
      000058 00 00r00r31            306 	.dw	0,(Sdelay$delay_05s$24)
      00005C 00 02                  307 	.dw	2
      00005E 78                     308 	.db	120
      00005F 06                     309 	.sleb128	6
      000060 00 00r00r1A            310 	.dw	0,(Sdelay$delay_05s$18)
      000064 00 00r00r2F            311 	.dw	0,(Sdelay$delay_05s$23)
      000068 00 02                  312 	.dw	2
      00006A 78                     313 	.db	120
      00006B 05                     314 	.sleb128	5
      00006C 00 00r00r16            315 	.dw	0,(Sdelay$delay_05s$17)
      000070 00 00r00r1A            316 	.dw	0,(Sdelay$delay_05s$18)
      000074 00 02                  317 	.dw	2
      000076 78                     318 	.db	120
      000077 07                     319 	.sleb128	7
      000078 00 00r00r14            320 	.dw	0,(Sdelay$delay_05s$15)
      00007C 00 00r00r16            321 	.dw	0,(Sdelay$delay_05s$17)
      000080 00 02                  322 	.dw	2
      000082 78                     323 	.db	120
      000083 05                     324 	.sleb128	5
      000084 00 00r00r12            325 	.dw	0,(Sdelay$delay_05s$14)
      000088 00 00r00r14            326 	.dw	0,(Sdelay$delay_05s$15)
      00008C 00 02                  327 	.dw	2
      00008E 78                     328 	.db	120
      00008F 01                     329 	.sleb128	1
      000090 00 00 00 00            330 	.dw	0,0
      000094 00 00 00 00            331 	.dw	0,0
      000098 00 00r00r11            332 	.dw	0,(Sdelay$delay_05s_init$9)
      00009C 00 00r00r12            333 	.dw	0,(Sdelay$delay_05s_init$12)
      0000A0 00 02                  334 	.dw	2
      0000A2 78                     335 	.db	120
      0000A3 01                     336 	.sleb128	1
      0000A4 00 00r00r0D            337 	.dw	0,(Sdelay$delay_05s_init$8)
      0000A8 00 00r00r11            338 	.dw	0,(Sdelay$delay_05s_init$9)
      0000AC 00 02                  339 	.dw	2
      0000AE 78                     340 	.db	120
      0000AF 02                     341 	.sleb128	2
      0000B0 00 00r00r0B            342 	.dw	0,(Sdelay$delay_05s_init$6)
      0000B4 00 00r00r0D            343 	.dw	0,(Sdelay$delay_05s_init$8)
      0000B8 00 02                  344 	.dw	2
      0000BA 78                     345 	.db	120
      0000BB 01                     346 	.sleb128	1
      0000BC 00 00r00r06            347 	.dw	0,(Sdelay$delay_05s_init$5)
      0000C0 00 00r00r0B            348 	.dw	0,(Sdelay$delay_05s_init$6)
      0000C4 00 02                  349 	.dw	2
      0000C6 78                     350 	.db	120
      0000C7 04                     351 	.sleb128	4
      0000C8 00 00r00r04            352 	.dw	0,(Sdelay$delay_05s_init$4)
      0000CC 00 00r00r06            353 	.dw	0,(Sdelay$delay_05s_init$5)
      0000D0 00 02                  354 	.dw	2
      0000D2 78                     355 	.db	120
      0000D3 03                     356 	.sleb128	3
      0000D4 00 00r00r02            357 	.dw	0,(Sdelay$delay_05s_init$3)
      0000D8 00 00r00r04            358 	.dw	0,(Sdelay$delay_05s_init$4)
      0000DC 00 02                  359 	.dw	2
      0000DE 78                     360 	.db	120
      0000DF 02                     361 	.sleb128	2
      0000E0 00 00r00r00            362 	.dw	0,(Sdelay$delay_05s_init$1)
      0000E4 00 00r00r02            363 	.dw	0,(Sdelay$delay_05s_init$3)
      0000E8 00 02                  364 	.dw	2
      0000EA 78                     365 	.db	120
      0000EB 01                     366 	.sleb128	1
      0000EC 00 00 00 00            367 	.dw	0,0
      0000F0 00 00 00 00            368 	.dw	0,0
                                    369 
                                    370 	.area .debug_abbrev (NOLOAD)
      000000                        371 Ldebug_abbrev:
      000000 04                     372 	.uleb128	4
      000001 05                     373 	.uleb128	5
      000002 00                     374 	.db	0
      000003 02                     375 	.uleb128	2
      000004 0A                     376 	.uleb128	10
      000005 03                     377 	.uleb128	3
      000006 08                     378 	.uleb128	8
      000007 49                     379 	.uleb128	73
      000008 13                     380 	.uleb128	19
      000009 00                     381 	.uleb128	0
      00000A 00                     382 	.uleb128	0
      00000B 03                     383 	.uleb128	3
      00000C 2E                     384 	.uleb128	46
      00000D 01                     385 	.db	1
      00000E 01                     386 	.uleb128	1
      00000F 13                     387 	.uleb128	19
      000010 03                     388 	.uleb128	3
      000011 08                     389 	.uleb128	8
      000012 11                     390 	.uleb128	17
      000013 01                     391 	.uleb128	1
      000014 12                     392 	.uleb128	18
      000015 01                     393 	.uleb128	1
      000016 3F                     394 	.uleb128	63
      000017 0C                     395 	.uleb128	12
      000018 40                     396 	.uleb128	64
      000019 06                     397 	.uleb128	6
      00001A 00                     398 	.uleb128	0
      00001B 00                     399 	.uleb128	0
      00001C 07                     400 	.uleb128	7
      00001D 34                     401 	.uleb128	52
      00001E 00                     402 	.db	0
      00001F 02                     403 	.uleb128	2
      000020 0A                     404 	.uleb128	10
      000021 03                     405 	.uleb128	3
      000022 08                     406 	.uleb128	8
      000023 49                     407 	.uleb128	73
      000024 13                     408 	.uleb128	19
      000025 00                     409 	.uleb128	0
      000026 00                     410 	.uleb128	0
      000027 01                     411 	.uleb128	1
      000028 11                     412 	.uleb128	17
      000029 01                     413 	.db	1
      00002A 03                     414 	.uleb128	3
      00002B 08                     415 	.uleb128	8
      00002C 10                     416 	.uleb128	16
      00002D 06                     417 	.uleb128	6
      00002E 13                     418 	.uleb128	19
      00002F 0B                     419 	.uleb128	11
      000030 25                     420 	.uleb128	37
      000031 08                     421 	.uleb128	8
      000032 00                     422 	.uleb128	0
      000033 00                     423 	.uleb128	0
      000034 05                     424 	.uleb128	5
      000035 0B                     425 	.uleb128	11
      000036 01                     426 	.db	1
      000037 11                     427 	.uleb128	17
      000038 01                     428 	.uleb128	1
      000039 12                     429 	.uleb128	18
      00003A 01                     430 	.uleb128	1
      00003B 00                     431 	.uleb128	0
      00003C 00                     432 	.uleb128	0
      00003D 06                     433 	.uleb128	6
      00003E 0B                     434 	.uleb128	11
      00003F 00                     435 	.db	0
      000040 11                     436 	.uleb128	17
      000041 01                     437 	.uleb128	1
      000042 12                     438 	.uleb128	18
      000043 01                     439 	.uleb128	1
      000044 00                     440 	.uleb128	0
      000045 00                     441 	.uleb128	0
      000046 02                     442 	.uleb128	2
      000047 2E                     443 	.uleb128	46
      000048 00                     444 	.db	0
      000049 03                     445 	.uleb128	3
      00004A 08                     446 	.uleb128	8
      00004B 11                     447 	.uleb128	17
      00004C 01                     448 	.uleb128	1
      00004D 12                     449 	.uleb128	18
      00004E 01                     450 	.uleb128	1
      00004F 3F                     451 	.uleb128	63
      000050 0C                     452 	.uleb128	12
      000051 40                     453 	.uleb128	64
      000052 06                     454 	.uleb128	6
      000053 00                     455 	.uleb128	0
      000054 00                     456 	.uleb128	0
      000055 08                     457 	.uleb128	8
      000056 24                     458 	.uleb128	36
      000057 00                     459 	.db	0
      000058 03                     460 	.uleb128	3
      000059 08                     461 	.uleb128	8
      00005A 0B                     462 	.uleb128	11
      00005B 0B                     463 	.uleb128	11
      00005C 3E                     464 	.uleb128	62
      00005D 0B                     465 	.uleb128	11
      00005E 00                     466 	.uleb128	0
      00005F 00                     467 	.uleb128	0
      000060 00                     468 	.uleb128	0
                                    469 
                                    470 	.area .debug_info (NOLOAD)
      000000 00 00 00 B1            471 	.dw	0,Ldebug_info_end-Ldebug_info_start
      000004                        472 Ldebug_info_start:
      000004 00 02                  473 	.dw	2
      000006 00 00r00r00            474 	.dw	0,(Ldebug_abbrev)
      00000A 04                     475 	.db	4
      00000B 01                     476 	.uleb128	1
      00000C 61 70 70 2F 73 72 63   477 	.ascii "app/src/delay.c"
             2F 64 65 6C 61 79 2E
             63
      00001B 00                     478 	.db	0
      00001C 00 00r00r00            479 	.dw	0,(Ldebug_line_start+-4)
      000020 01                     480 	.db	1
      000021 53 44 43 43 20 76 65   481 	.ascii "SDCC version 4.1.0 #12072"
             72 73 69 6F 6E 20 34
             2E 31 2E 30 20 23 31
             32 30 37 32
      00003A 00                     482 	.db	0
      00003B 02                     483 	.uleb128	2
      00003C 64 65 6C 61 79 5F 30   484 	.ascii "delay_05s_init"
             35 73 5F 69 6E 69 74
      00004A 00                     485 	.db	0
      00004B 00 00r00r00            486 	.dw	0,(_delay_05s_init)
      00004F 00 00r00r12            487 	.dw	0,(XG$delay_05s_init$0$0+1)
      000053 01                     488 	.db	1
      000054 00 00r00r98            489 	.dw	0,(Ldebug_loc_start+152)
      000058 03                     490 	.uleb128	3
      000059 00 00 00 A1            491 	.dw	0,161
      00005D 64 65 6C 61 79 5F 30   492 	.ascii "delay_05s"
             35 73
      000066 00                     493 	.db	0
      000067 00 00r00r12            494 	.dw	0,(_delay_05s)
      00006B 00 00r00r51            495 	.dw	0,(XG$delay_05s$0$0+1)
      00006F 01                     496 	.db	1
      000070 00 00r00r00            497 	.dw	0,(Ldebug_loc_start)
      000074 04                     498 	.uleb128	4
      000075 02                     499 	.db	2
      000076 91                     500 	.db	145
      000077 02                     501 	.sleb128	2
      000078 74 69 6D 65 5F 73      502 	.ascii "time_s"
      00007E 00                     503 	.db	0
      00007F 00 00 00 A1            504 	.dw	0,161
      000083 05                     505 	.uleb128	5
      000084 00 00r00r1F            506 	.dw	0,(Sdelay$delay_05s$20)
      000088 00 00r00r4E            507 	.dw	0,(Sdelay$delay_05s$33)
      00008C 06                     508 	.uleb128	6
      00008D 00 00r00r2D            509 	.dw	0,(Sdelay$delay_05s$21)
      000091 00 00r00r40            510 	.dw	0,(Sdelay$delay_05s$31)
      000095 07                     511 	.uleb128	7
      000096 02                     512 	.db	2
      000097 91                     513 	.db	145
      000098 7C                     514 	.sleb128	-4
      000099 69                     515 	.ascii "i"
      00009A 00                     516 	.db	0
      00009B 00 00 00 A1            517 	.dw	0,161
      00009F 00                     518 	.uleb128	0
      0000A0 00                     519 	.uleb128	0
      0000A1 08                     520 	.uleb128	8
      0000A2 75 6E 73 69 67 6E 65   521 	.ascii "unsigned long"
             64 20 6C 6F 6E 67
      0000AF 00                     522 	.db	0
      0000B0 04                     523 	.db	4
      0000B1 07                     524 	.db	7
      0000B2 00                     525 	.uleb128	0
      0000B3 00                     526 	.uleb128	0
      0000B4 00                     527 	.uleb128	0
      0000B5                        528 Ldebug_info_end:
                                    529 
                                    530 	.area .debug_pubnames (NOLOAD)
      000000 00 00 00 2F            531 	.dw	0,Ldebug_pubnames_end-Ldebug_pubnames_start
      000004                        532 Ldebug_pubnames_start:
      000004 00 02                  533 	.dw	2
      000006 00 00r00r00            534 	.dw	0,(Ldebug_info_start-4)
      00000A 00 00 00 B5            535 	.dw	0,4+Ldebug_info_end-Ldebug_info_start
      00000E 00 00 00 3B            536 	.dw	0,59
      000012 64 65 6C 61 79 5F 30   537 	.ascii "delay_05s_init"
             35 73 5F 69 6E 69 74
      000020 00                     538 	.db	0
      000021 00 00 00 58            539 	.dw	0,88
      000025 64 65 6C 61 79 5F 30   540 	.ascii "delay_05s"
             35 73
      00002E 00                     541 	.db	0
      00002F 00 00 00 00            542 	.dw	0,0
      000033                        543 Ldebug_pubnames_end:
                                    544 
                                    545 	.area .debug_frame (NOLOAD)
      000000 00 00                  546 	.dw	0
      000002 00 0E                  547 	.dw	Ldebug_CIE0_end-Ldebug_CIE0_start
      000004                        548 Ldebug_CIE0_start:
      000004 FF FF                  549 	.dw	0xffff
      000006 FF FF                  550 	.dw	0xffff
      000008 01                     551 	.db	1
      000009 00                     552 	.db	0
      00000A 01                     553 	.uleb128	1
      00000B 7F                     554 	.sleb128	-1
      00000C 09                     555 	.db	9
      00000D 0C                     556 	.db	12
      00000E 08                     557 	.uleb128	8
      00000F 02                     558 	.uleb128	2
      000010 89                     559 	.db	137
      000011 01                     560 	.uleb128	1
      000012                        561 Ldebug_CIE0_end:
      000012 00 00 00 60            562 	.dw	0,96
      000016 00 00r00r00            563 	.dw	0,(Ldebug_CIE0_start-4)
      00001A 00 00r00r12            564 	.dw	0,(Sdelay$delay_05s$14)	;initial loc
      00001E 00 00 00 3F            565 	.dw	0,Sdelay$delay_05s$37-Sdelay$delay_05s$14
      000022 01                     566 	.db	1
      000023 00 00r00r12            567 	.dw	0,(Sdelay$delay_05s$14)
      000027 0E                     568 	.db	14
      000028 02                     569 	.uleb128	2
      000029 01                     570 	.db	1
      00002A 00 00r00r14            571 	.dw	0,(Sdelay$delay_05s$15)
      00002E 0E                     572 	.db	14
      00002F 06                     573 	.uleb128	6
      000030 01                     574 	.db	1
      000031 00 00r00r16            575 	.dw	0,(Sdelay$delay_05s$17)
      000035 0E                     576 	.db	14
      000036 08                     577 	.uleb128	8
      000037 01                     578 	.db	1
      000038 00 00r00r1A            579 	.dw	0,(Sdelay$delay_05s$18)
      00003C 0E                     580 	.db	14
      00003D 06                     581 	.uleb128	6
      00003E 01                     582 	.db	1
      00003F 00 00r00r2F            583 	.dw	0,(Sdelay$delay_05s$23)
      000043 0E                     584 	.db	14
      000044 07                     585 	.uleb128	7
      000045 01                     586 	.db	1
      000046 00 00r00r31            587 	.dw	0,(Sdelay$delay_05s$24)
      00004A 0E                     588 	.db	14
      00004B 08                     589 	.uleb128	8
      00004C 01                     590 	.db	1
      00004D 00 00r00r35            591 	.dw	0,(Sdelay$delay_05s$25)
      000051 0E                     592 	.db	14
      000052 06                     593 	.uleb128	6
      000053 01                     594 	.db	1
      000054 00 00r00r38            595 	.dw	0,(Sdelay$delay_05s$26)
      000058 0E                     596 	.db	14
      000059 06                     597 	.uleb128	6
      00005A 01                     598 	.db	1
      00005B 00 00r00r3A            599 	.dw	0,(Sdelay$delay_05s$28)
      00005F 0E                     600 	.db	14
      000060 07                     601 	.uleb128	7
      000061 01                     602 	.db	1
      000062 00 00r00r3C            603 	.dw	0,(Sdelay$delay_05s$29)
      000066 0E                     604 	.db	14
      000067 08                     605 	.uleb128	8
      000068 01                     606 	.db	1
      000069 00 00r00r40            607 	.dw	0,(Sdelay$delay_05s$30)
      00006D 0E                     608 	.db	14
      00006E 06                     609 	.uleb128	6
      00006F 01                     610 	.db	1
      000070 00 00r00r50            611 	.dw	0,(Sdelay$delay_05s$35)
      000074 0E                     612 	.db	14
      000075 02                     613 	.uleb128	2
                                    614 
                                    615 	.area .debug_frame (NOLOAD)
      000076 00 00                  616 	.dw	0
      000078 00 0E                  617 	.dw	Ldebug_CIE1_end-Ldebug_CIE1_start
      00007A                        618 Ldebug_CIE1_start:
      00007A FF FF                  619 	.dw	0xffff
      00007C FF FF                  620 	.dw	0xffff
      00007E 01                     621 	.db	1
      00007F 00                     622 	.db	0
      000080 01                     623 	.uleb128	1
      000081 7F                     624 	.sleb128	-1
      000082 09                     625 	.db	9
      000083 0C                     626 	.db	12
      000084 08                     627 	.uleb128	8
      000085 02                     628 	.uleb128	2
      000086 89                     629 	.db	137
      000087 01                     630 	.uleb128	1
      000088                        631 Ldebug_CIE1_end:
      000088 00 00 00 3D            632 	.dw	0,61
      00008C 00 00r00r76            633 	.dw	0,(Ldebug_CIE1_start-4)
      000090 00 00r00r00            634 	.dw	0,(Sdelay$delay_05s_init$1)	;initial loc
      000094 00 00 00 12            635 	.dw	0,Sdelay$delay_05s_init$12-Sdelay$delay_05s_init$1
      000098 01                     636 	.db	1
      000099 00 00r00r00            637 	.dw	0,(Sdelay$delay_05s_init$1)
      00009D 0E                     638 	.db	14
      00009E 02                     639 	.uleb128	2
      00009F 01                     640 	.db	1
      0000A0 00 00r00r02            641 	.dw	0,(Sdelay$delay_05s_init$3)
      0000A4 0E                     642 	.db	14
      0000A5 03                     643 	.uleb128	3
      0000A6 01                     644 	.db	1
      0000A7 00 00r00r04            645 	.dw	0,(Sdelay$delay_05s_init$4)
      0000AB 0E                     646 	.db	14
      0000AC 04                     647 	.uleb128	4
      0000AD 01                     648 	.db	1
      0000AE 00 00r00r06            649 	.dw	0,(Sdelay$delay_05s_init$5)
      0000B2 0E                     650 	.db	14
      0000B3 05                     651 	.uleb128	5
      0000B4 01                     652 	.db	1
      0000B5 00 00r00r0B            653 	.dw	0,(Sdelay$delay_05s_init$6)
      0000B9 0E                     654 	.db	14
      0000BA 02                     655 	.uleb128	2
      0000BB 01                     656 	.db	1
      0000BC 00 00r00r0D            657 	.dw	0,(Sdelay$delay_05s_init$8)
      0000C0 0E                     658 	.db	14
      0000C1 03                     659 	.uleb128	3
      0000C2 01                     660 	.db	1
      0000C3 00 00r00r11            661 	.dw	0,(Sdelay$delay_05s_init$9)
      0000C7 0E                     662 	.db	14
      0000C8 02                     663 	.uleb128	2
