                                      1 ;--------------------------------------------------------
                                      2 ; File Created by SDCC : free open source ANSI-C Compiler
                                      3 ; Version 4.1.0 #12072 (MINGW64)
                                      4 ;--------------------------------------------------------
                                      5 	.module jas
                                      6 	.optsdcc -mstm8
                                      7 	
                                      8 ;--------------------------------------------------------
                                      9 ; Public variables in this module
                                     10 ;--------------------------------------------------------
                                     11 	.globl _TIM2_SetCompare1
                                     12 	.globl _TIM2_OC1PreloadConfig
                                     13 	.globl _TIM2_Cmd
                                     14 	.globl _TIM2_OC1Init
                                     15 	.globl _TIM2_TimeBaseInit
                                     16 	.globl _jas_init
                                     17 	.globl _jas
                                     18 ;--------------------------------------------------------
                                     19 ; ram data
                                     20 ;--------------------------------------------------------
                                     21 	.area DATA
                                     22 ;--------------------------------------------------------
                                     23 ; ram data
                                     24 ;--------------------------------------------------------
                                     25 	.area INITIALIZED
                                     26 ;--------------------------------------------------------
                                     27 ; absolute external ram data
                                     28 ;--------------------------------------------------------
                                     29 	.area DABS (ABS)
                                     30 
                                     31 ; default segment ordering for linker
                                     32 	.area HOME
                                     33 	.area GSINIT
                                     34 	.area GSFINAL
                                     35 	.area CONST
                                     36 	.area INITIALIZER
                                     37 	.area CODE
                                     38 
                                     39 ;--------------------------------------------------------
                                     40 ; global & static initialisations
                                     41 ;--------------------------------------------------------
                                     42 	.area HOME
                                     43 	.area GSINIT
                                     44 	.area GSFINAL
                                     45 	.area GSINIT
                                     46 ;--------------------------------------------------------
                                     47 ; Home
                                     48 ;--------------------------------------------------------
                                     49 	.area HOME
                                     50 	.area HOME
                                     51 ;--------------------------------------------------------
                                     52 ; code
                                     53 ;--------------------------------------------------------
                                     54 	.area CODE
                           000000    55 	Sjas$jas_init$0 ==.
                                     56 ;	app/src/jas.c: 4: void jas_init(void) //azurova #00ffff zluta #ffff00 oranzova  #ff4000
                                     57 ;	-----------------------------------------
                                     58 ;	 function jas_init
                                     59 ;	-----------------------------------------
      000000                         60 _jas_init:
                           000000    61 	Sjas$jas_init$1 ==.
                           000000    62 	Sjas$jas_init$2 ==.
                                     63 ;	app/src/jas.c: 6: TIM2_TimeBaseInit(TIM2_PRESCALER_128,255);
      000000 4B FF            [ 1]   64 	push	#0xff
                           000002    65 	Sjas$jas_init$3 ==.
      000002 4B 00            [ 1]   66 	push	#0x00
                           000004    67 	Sjas$jas_init$4 ==.
      000004 4B 07            [ 1]   68 	push	#0x07
                           000006    69 	Sjas$jas_init$5 ==.
      000006 CDr00r00         [ 4]   70 	call	_TIM2_TimeBaseInit
      000009 5B 03            [ 2]   71 	addw	sp, #3
                           00000B    72 	Sjas$jas_init$6 ==.
                           00000B    73 	Sjas$jas_init$7 ==.
                                     74 ;	app/src/jas.c: 8: TIM2_OC1Init(TIM2_OCMODE_PWM1,TIM2_OUTPUTSTATE_ENABLE,4000,TIM2_OCPOLARITY_HIGH);
      00000B 4B 00            [ 1]   75 	push	#0x00
                           00000D    76 	Sjas$jas_init$8 ==.
      00000D 4B A0            [ 1]   77 	push	#0xa0
                           00000F    78 	Sjas$jas_init$9 ==.
      00000F 4B 0F            [ 1]   79 	push	#0x0f
                           000011    80 	Sjas$jas_init$10 ==.
      000011 4B 11            [ 1]   81 	push	#0x11
                           000013    82 	Sjas$jas_init$11 ==.
      000013 4B 60            [ 1]   83 	push	#0x60
                           000015    84 	Sjas$jas_init$12 ==.
      000015 CDr00r00         [ 4]   85 	call	_TIM2_OC1Init
      000018 5B 05            [ 2]   86 	addw	sp, #5
                           00001A    87 	Sjas$jas_init$13 ==.
                           00001A    88 	Sjas$jas_init$14 ==.
                                     89 ;	app/src/jas.c: 9: TIM2_OC1PreloadConfig(ENABLE);
      00001A 4B 01            [ 1]   90 	push	#0x01
                           00001C    91 	Sjas$jas_init$15 ==.
      00001C CDr00r00         [ 4]   92 	call	_TIM2_OC1PreloadConfig
      00001F 84               [ 1]   93 	pop	a
                           000020    94 	Sjas$jas_init$16 ==.
                           000020    95 	Sjas$jas_init$17 ==.
                                     96 ;	app/src/jas.c: 11: TIM2_Cmd(ENABLE);
      000020 4B 01            [ 1]   97 	push	#0x01
                           000022    98 	Sjas$jas_init$18 ==.
      000022 CDr00r00         [ 4]   99 	call	_TIM2_Cmd
      000025 84               [ 1]  100 	pop	a
                           000026   101 	Sjas$jas_init$19 ==.
                           000026   102 	Sjas$jas_init$20 ==.
                                    103 ;	app/src/jas.c: 12: }
                           000026   104 	Sjas$jas_init$21 ==.
                           000026   105 	XG$jas_init$0$0 ==.
      000026 81               [ 4]  106 	ret
                           000027   107 	Sjas$jas_init$22 ==.
                           000027   108 	Sjas$jas$23 ==.
                                    109 ;	app/src/jas.c: 13: void jas(uint8_t j){
                                    110 ;	-----------------------------------------
                                    111 ;	 function jas
                                    112 ;	-----------------------------------------
      000027                        113 _jas:
                           000027   114 	Sjas$jas$24 ==.
                           000027   115 	Sjas$jas$25 ==.
                                    116 ;	app/src/jas.c: 14: TIM2_SetCompare1(j);
      000027 5F               [ 1]  117 	clrw	x
      000028 7B 03            [ 1]  118 	ld	a, (0x03, sp)
      00002A 97               [ 1]  119 	ld	xl, a
      00002B 89               [ 2]  120 	pushw	x
                           00002C   121 	Sjas$jas$26 ==.
      00002C CDr00r00         [ 4]  122 	call	_TIM2_SetCompare1
      00002F 85               [ 2]  123 	popw	x
                           000030   124 	Sjas$jas$27 ==.
                           000030   125 	Sjas$jas$28 ==.
                                    126 ;	app/src/jas.c: 17: }
                           000030   127 	Sjas$jas$29 ==.
                           000030   128 	XG$jas$0$0 ==.
      000030 81               [ 4]  129 	ret
                           000031   130 	Sjas$jas$30 ==.
                                    131 	.area CODE
                                    132 	.area CONST
                                    133 	.area INITIALIZER
                                    134 	.area CABS (ABS)
                                    135 
                                    136 	.area .debug_line (NOLOAD)
      000000 00 00 00 BE            137 	.dw	0,Ldebug_line_end-Ldebug_line_start
      000004                        138 Ldebug_line_start:
      000004 00 02                  139 	.dw	2
      000006 00 00 00 6E            140 	.dw	0,Ldebug_line_stmt-6-Ldebug_line_start
      00000A 01                     141 	.db	1
      00000B 01                     142 	.db	1
      00000C FB                     143 	.db	-5
      00000D 0F                     144 	.db	15
      00000E 0A                     145 	.db	10
      00000F 00                     146 	.db	0
      000010 01                     147 	.db	1
      000011 01                     148 	.db	1
      000012 01                     149 	.db	1
      000013 01                     150 	.db	1
      000014 00                     151 	.db	0
      000015 00                     152 	.db	0
      000016 00                     153 	.db	0
      000017 01                     154 	.db	1
      000018 43 3A 5C 50 72 6F 67   155 	.ascii "C:\Program Files\SDCC\bin\..\include\stm8"
             72 61 6D 20 46 69 6C
             65 73 5C 53 44 43 43
             08 69 6E 5C 2E 2E 5C
             69 6E 63 6C 75 64 65
             5C 73 74 6D 38
      000040 00                     156 	.db	0
      000041 43 3A 5C 50 72 6F 67   157 	.ascii "C:\Program Files\SDCC\bin\..\include"
             72 61 6D 20 46 69 6C
             65 73 5C 53 44 43 43
             08 69 6E 5C 2E 2E 5C
             69 6E 63 6C 75 64 65
      000064 00                     158 	.db	0
      000065 00                     159 	.db	0
      000066 61 70 70 2F 73 72 63   160 	.ascii "app/src/jas.c"
             2F 6A 61 73 2E 63
      000073 00                     161 	.db	0
      000074 00                     162 	.uleb128	0
      000075 00                     163 	.uleb128	0
      000076 00                     164 	.uleb128	0
      000077 00                     165 	.db	0
      000078                        166 Ldebug_line_stmt:
      000078 00                     167 	.db	0
      000079 05                     168 	.uleb128	5
      00007A 02                     169 	.db	2
      00007B 00 00r00r00            170 	.dw	0,(Sjas$jas_init$0)
      00007F 03                     171 	.db	3
      000080 03                     172 	.sleb128	3
      000081 01                     173 	.db	1
      000082 09                     174 	.db	9
      000083 00 00                  175 	.dw	Sjas$jas_init$2-Sjas$jas_init$0
      000085 03                     176 	.db	3
      000086 02                     177 	.sleb128	2
      000087 01                     178 	.db	1
      000088 09                     179 	.db	9
      000089 00 0B                  180 	.dw	Sjas$jas_init$7-Sjas$jas_init$2
      00008B 03                     181 	.db	3
      00008C 02                     182 	.sleb128	2
      00008D 01                     183 	.db	1
      00008E 09                     184 	.db	9
      00008F 00 0F                  185 	.dw	Sjas$jas_init$14-Sjas$jas_init$7
      000091 03                     186 	.db	3
      000092 01                     187 	.sleb128	1
      000093 01                     188 	.db	1
      000094 09                     189 	.db	9
      000095 00 06                  190 	.dw	Sjas$jas_init$17-Sjas$jas_init$14
      000097 03                     191 	.db	3
      000098 02                     192 	.sleb128	2
      000099 01                     193 	.db	1
      00009A 09                     194 	.db	9
      00009B 00 06                  195 	.dw	Sjas$jas_init$20-Sjas$jas_init$17
      00009D 03                     196 	.db	3
      00009E 01                     197 	.sleb128	1
      00009F 01                     198 	.db	1
      0000A0 09                     199 	.db	9
      0000A1 00 01                  200 	.dw	1+Sjas$jas_init$21-Sjas$jas_init$20
      0000A3 00                     201 	.db	0
      0000A4 01                     202 	.uleb128	1
      0000A5 01                     203 	.db	1
      0000A6 00                     204 	.db	0
      0000A7 05                     205 	.uleb128	5
      0000A8 02                     206 	.db	2
      0000A9 00 00r00r27            207 	.dw	0,(Sjas$jas$23)
      0000AD 03                     208 	.db	3
      0000AE 0C                     209 	.sleb128	12
      0000AF 01                     210 	.db	1
      0000B0 09                     211 	.db	9
      0000B1 00 00                  212 	.dw	Sjas$jas$25-Sjas$jas$23
      0000B3 03                     213 	.db	3
      0000B4 01                     214 	.sleb128	1
      0000B5 01                     215 	.db	1
      0000B6 09                     216 	.db	9
      0000B7 00 09                  217 	.dw	Sjas$jas$28-Sjas$jas$25
      0000B9 03                     218 	.db	3
      0000BA 03                     219 	.sleb128	3
      0000BB 01                     220 	.db	1
      0000BC 09                     221 	.db	9
      0000BD 00 01                  222 	.dw	1+Sjas$jas$29-Sjas$jas$28
      0000BF 00                     223 	.db	0
      0000C0 01                     224 	.uleb128	1
      0000C1 01                     225 	.db	1
      0000C2                        226 Ldebug_line_end:
                                    227 
                                    228 	.area .debug_loc (NOLOAD)
      000000                        229 Ldebug_loc_start:
      000000 00 00r00r30            230 	.dw	0,(Sjas$jas$27)
      000004 00 00r00r31            231 	.dw	0,(Sjas$jas$30)
      000008 00 02                  232 	.dw	2
      00000A 78                     233 	.db	120
      00000B 01                     234 	.sleb128	1
      00000C 00 00r00r2C            235 	.dw	0,(Sjas$jas$26)
      000010 00 00r00r30            236 	.dw	0,(Sjas$jas$27)
      000014 00 02                  237 	.dw	2
      000016 78                     238 	.db	120
      000017 03                     239 	.sleb128	3
      000018 00 00r00r27            240 	.dw	0,(Sjas$jas$24)
      00001C 00 00r00r2C            241 	.dw	0,(Sjas$jas$26)
      000020 00 02                  242 	.dw	2
      000022 78                     243 	.db	120
      000023 01                     244 	.sleb128	1
      000024 00 00 00 00            245 	.dw	0,0
      000028 00 00 00 00            246 	.dw	0,0
      00002C 00 00r00r26            247 	.dw	0,(Sjas$jas_init$19)
      000030 00 00r00r27            248 	.dw	0,(Sjas$jas_init$22)
      000034 00 02                  249 	.dw	2
      000036 78                     250 	.db	120
      000037 01                     251 	.sleb128	1
      000038 00 00r00r22            252 	.dw	0,(Sjas$jas_init$18)
      00003C 00 00r00r26            253 	.dw	0,(Sjas$jas_init$19)
      000040 00 02                  254 	.dw	2
      000042 78                     255 	.db	120
      000043 02                     256 	.sleb128	2
      000044 00 00r00r20            257 	.dw	0,(Sjas$jas_init$16)
      000048 00 00r00r22            258 	.dw	0,(Sjas$jas_init$18)
      00004C 00 02                  259 	.dw	2
      00004E 78                     260 	.db	120
      00004F 01                     261 	.sleb128	1
      000050 00 00r00r1C            262 	.dw	0,(Sjas$jas_init$15)
      000054 00 00r00r20            263 	.dw	0,(Sjas$jas_init$16)
      000058 00 02                  264 	.dw	2
      00005A 78                     265 	.db	120
      00005B 02                     266 	.sleb128	2
      00005C 00 00r00r1A            267 	.dw	0,(Sjas$jas_init$13)
      000060 00 00r00r1C            268 	.dw	0,(Sjas$jas_init$15)
      000064 00 02                  269 	.dw	2
      000066 78                     270 	.db	120
      000067 01                     271 	.sleb128	1
      000068 00 00r00r15            272 	.dw	0,(Sjas$jas_init$12)
      00006C 00 00r00r1A            273 	.dw	0,(Sjas$jas_init$13)
      000070 00 02                  274 	.dw	2
      000072 78                     275 	.db	120
      000073 06                     276 	.sleb128	6
      000074 00 00r00r13            277 	.dw	0,(Sjas$jas_init$11)
      000078 00 00r00r15            278 	.dw	0,(Sjas$jas_init$12)
      00007C 00 02                  279 	.dw	2
      00007E 78                     280 	.db	120
      00007F 05                     281 	.sleb128	5
      000080 00 00r00r11            282 	.dw	0,(Sjas$jas_init$10)
      000084 00 00r00r13            283 	.dw	0,(Sjas$jas_init$11)
      000088 00 02                  284 	.dw	2
      00008A 78                     285 	.db	120
      00008B 04                     286 	.sleb128	4
      00008C 00 00r00r0F            287 	.dw	0,(Sjas$jas_init$9)
      000090 00 00r00r11            288 	.dw	0,(Sjas$jas_init$10)
      000094 00 02                  289 	.dw	2
      000096 78                     290 	.db	120
      000097 03                     291 	.sleb128	3
      000098 00 00r00r0D            292 	.dw	0,(Sjas$jas_init$8)
      00009C 00 00r00r0F            293 	.dw	0,(Sjas$jas_init$9)
      0000A0 00 02                  294 	.dw	2
      0000A2 78                     295 	.db	120
      0000A3 02                     296 	.sleb128	2
      0000A4 00 00r00r0B            297 	.dw	0,(Sjas$jas_init$6)
      0000A8 00 00r00r0D            298 	.dw	0,(Sjas$jas_init$8)
      0000AC 00 02                  299 	.dw	2
      0000AE 78                     300 	.db	120
      0000AF 01                     301 	.sleb128	1
      0000B0 00 00r00r06            302 	.dw	0,(Sjas$jas_init$5)
      0000B4 00 00r00r0B            303 	.dw	0,(Sjas$jas_init$6)
      0000B8 00 02                  304 	.dw	2
      0000BA 78                     305 	.db	120
      0000BB 04                     306 	.sleb128	4
      0000BC 00 00r00r04            307 	.dw	0,(Sjas$jas_init$4)
      0000C0 00 00r00r06            308 	.dw	0,(Sjas$jas_init$5)
      0000C4 00 02                  309 	.dw	2
      0000C6 78                     310 	.db	120
      0000C7 03                     311 	.sleb128	3
      0000C8 00 00r00r02            312 	.dw	0,(Sjas$jas_init$3)
      0000CC 00 00r00r04            313 	.dw	0,(Sjas$jas_init$4)
      0000D0 00 02                  314 	.dw	2
      0000D2 78                     315 	.db	120
      0000D3 02                     316 	.sleb128	2
      0000D4 00 00r00r00            317 	.dw	0,(Sjas$jas_init$1)
      0000D8 00 00r00r02            318 	.dw	0,(Sjas$jas_init$3)
      0000DC 00 02                  319 	.dw	2
      0000DE 78                     320 	.db	120
      0000DF 01                     321 	.sleb128	1
      0000E0 00 00 00 00            322 	.dw	0,0
      0000E4 00 00 00 00            323 	.dw	0,0
                                    324 
                                    325 	.area .debug_abbrev (NOLOAD)
      000000                        326 Ldebug_abbrev:
      000000 04                     327 	.uleb128	4
      000001 05                     328 	.uleb128	5
      000002 00                     329 	.db	0
      000003 02                     330 	.uleb128	2
      000004 0A                     331 	.uleb128	10
      000005 03                     332 	.uleb128	3
      000006 08                     333 	.uleb128	8
      000007 49                     334 	.uleb128	73
      000008 13                     335 	.uleb128	19
      000009 00                     336 	.uleb128	0
      00000A 00                     337 	.uleb128	0
      00000B 03                     338 	.uleb128	3
      00000C 2E                     339 	.uleb128	46
      00000D 01                     340 	.db	1
      00000E 01                     341 	.uleb128	1
      00000F 13                     342 	.uleb128	19
      000010 03                     343 	.uleb128	3
      000011 08                     344 	.uleb128	8
      000012 11                     345 	.uleb128	17
      000013 01                     346 	.uleb128	1
      000014 12                     347 	.uleb128	18
      000015 01                     348 	.uleb128	1
      000016 3F                     349 	.uleb128	63
      000017 0C                     350 	.uleb128	12
      000018 40                     351 	.uleb128	64
      000019 06                     352 	.uleb128	6
      00001A 00                     353 	.uleb128	0
      00001B 00                     354 	.uleb128	0
      00001C 01                     355 	.uleb128	1
      00001D 11                     356 	.uleb128	17
      00001E 01                     357 	.db	1
      00001F 03                     358 	.uleb128	3
      000020 08                     359 	.uleb128	8
      000021 10                     360 	.uleb128	16
      000022 06                     361 	.uleb128	6
      000023 13                     362 	.uleb128	19
      000024 0B                     363 	.uleb128	11
      000025 25                     364 	.uleb128	37
      000026 08                     365 	.uleb128	8
      000027 00                     366 	.uleb128	0
      000028 00                     367 	.uleb128	0
      000029 02                     368 	.uleb128	2
      00002A 2E                     369 	.uleb128	46
      00002B 00                     370 	.db	0
      00002C 03                     371 	.uleb128	3
      00002D 08                     372 	.uleb128	8
      00002E 11                     373 	.uleb128	17
      00002F 01                     374 	.uleb128	1
      000030 12                     375 	.uleb128	18
      000031 01                     376 	.uleb128	1
      000032 3F                     377 	.uleb128	63
      000033 0C                     378 	.uleb128	12
      000034 40                     379 	.uleb128	64
      000035 06                     380 	.uleb128	6
      000036 00                     381 	.uleb128	0
      000037 00                     382 	.uleb128	0
      000038 05                     383 	.uleb128	5
      000039 24                     384 	.uleb128	36
      00003A 00                     385 	.db	0
      00003B 03                     386 	.uleb128	3
      00003C 08                     387 	.uleb128	8
      00003D 0B                     388 	.uleb128	11
      00003E 0B                     389 	.uleb128	11
      00003F 3E                     390 	.uleb128	62
      000040 0B                     391 	.uleb128	11
      000041 00                     392 	.uleb128	0
      000042 00                     393 	.uleb128	0
      000043 00                     394 	.uleb128	0
                                    395 
                                    396 	.area .debug_info (NOLOAD)
      000000 00 00 00 81            397 	.dw	0,Ldebug_info_end-Ldebug_info_start
      000004                        398 Ldebug_info_start:
      000004 00 02                  399 	.dw	2
      000006 00 00r00r00            400 	.dw	0,(Ldebug_abbrev)
      00000A 04                     401 	.db	4
      00000B 01                     402 	.uleb128	1
      00000C 61 70 70 2F 73 72 63   403 	.ascii "app/src/jas.c"
             2F 6A 61 73 2E 63
      000019 00                     404 	.db	0
      00001A 00 00r00r00            405 	.dw	0,(Ldebug_line_start+-4)
      00001E 01                     406 	.db	1
      00001F 53 44 43 43 20 76 65   407 	.ascii "SDCC version 4.1.0 #12072"
             72 73 69 6F 6E 20 34
             2E 31 2E 30 20 23 31
             32 30 37 32
      000038 00                     408 	.db	0
      000039 02                     409 	.uleb128	2
      00003A 6A 61 73 5F 69 6E 69   410 	.ascii "jas_init"
             74
      000042 00                     411 	.db	0
      000043 00 00r00r00            412 	.dw	0,(_jas_init)
      000047 00 00r00r27            413 	.dw	0,(XG$jas_init$0$0+1)
      00004B 01                     414 	.db	1
      00004C 00 00r00r2C            415 	.dw	0,(Ldebug_loc_start+44)
      000050 03                     416 	.uleb128	3
      000051 00 00 00 71            417 	.dw	0,113
      000055 6A 61 73               418 	.ascii "jas"
      000058 00                     419 	.db	0
      000059 00 00r00r27            420 	.dw	0,(_jas)
      00005D 00 00r00r31            421 	.dw	0,(XG$jas$0$0+1)
      000061 01                     422 	.db	1
      000062 00 00r00r00            423 	.dw	0,(Ldebug_loc_start)
      000066 04                     424 	.uleb128	4
      000067 02                     425 	.db	2
      000068 91                     426 	.db	145
      000069 02                     427 	.sleb128	2
      00006A 6A                     428 	.ascii "j"
      00006B 00                     429 	.db	0
      00006C 00 00 00 71            430 	.dw	0,113
      000070 00                     431 	.uleb128	0
      000071 05                     432 	.uleb128	5
      000072 75 6E 73 69 67 6E 65   433 	.ascii "unsigned char"
             64 20 63 68 61 72
      00007F 00                     434 	.db	0
      000080 01                     435 	.db	1
      000081 08                     436 	.db	8
      000082 00                     437 	.uleb128	0
      000083 00                     438 	.uleb128	0
      000084 00                     439 	.uleb128	0
      000085                        440 Ldebug_info_end:
                                    441 
                                    442 	.area .debug_pubnames (NOLOAD)
      000000 00 00 00 23            443 	.dw	0,Ldebug_pubnames_end-Ldebug_pubnames_start
      000004                        444 Ldebug_pubnames_start:
      000004 00 02                  445 	.dw	2
      000006 00 00r00r00            446 	.dw	0,(Ldebug_info_start-4)
      00000A 00 00 00 85            447 	.dw	0,4+Ldebug_info_end-Ldebug_info_start
      00000E 00 00 00 39            448 	.dw	0,57
      000012 6A 61 73 5F 69 6E 69   449 	.ascii "jas_init"
             74
      00001A 00                     450 	.db	0
      00001B 00 00 00 50            451 	.dw	0,80
      00001F 6A 61 73               452 	.ascii "jas"
      000022 00                     453 	.db	0
      000023 00 00 00 00            454 	.dw	0,0
      000027                        455 Ldebug_pubnames_end:
                                    456 
                                    457 	.area .debug_frame (NOLOAD)
      000000 00 00                  458 	.dw	0
      000002 00 0E                  459 	.dw	Ldebug_CIE0_end-Ldebug_CIE0_start
      000004                        460 Ldebug_CIE0_start:
      000004 FF FF                  461 	.dw	0xffff
      000006 FF FF                  462 	.dw	0xffff
      000008 01                     463 	.db	1
      000009 00                     464 	.db	0
      00000A 01                     465 	.uleb128	1
      00000B 7F                     466 	.sleb128	-1
      00000C 09                     467 	.db	9
      00000D 0C                     468 	.db	12
      00000E 08                     469 	.uleb128	8
      00000F 02                     470 	.uleb128	2
      000010 89                     471 	.db	137
      000011 01                     472 	.uleb128	1
      000012                        473 Ldebug_CIE0_end:
      000012 00 00 00 21            474 	.dw	0,33
      000016 00 00r00r00            475 	.dw	0,(Ldebug_CIE0_start-4)
      00001A 00 00r00r27            476 	.dw	0,(Sjas$jas$24)	;initial loc
      00001E 00 00 00 0A            477 	.dw	0,Sjas$jas$30-Sjas$jas$24
      000022 01                     478 	.db	1
      000023 00 00r00r27            479 	.dw	0,(Sjas$jas$24)
      000027 0E                     480 	.db	14
      000028 02                     481 	.uleb128	2
      000029 01                     482 	.db	1
      00002A 00 00r00r2C            483 	.dw	0,(Sjas$jas$26)
      00002E 0E                     484 	.db	14
      00002F 04                     485 	.uleb128	4
      000030 01                     486 	.db	1
      000031 00 00r00r30            487 	.dw	0,(Sjas$jas$27)
      000035 0E                     488 	.db	14
      000036 02                     489 	.uleb128	2
                                    490 
                                    491 	.area .debug_frame (NOLOAD)
      000037 00 00                  492 	.dw	0
      000039 00 0E                  493 	.dw	Ldebug_CIE1_end-Ldebug_CIE1_start
      00003B                        494 Ldebug_CIE1_start:
      00003B FF FF                  495 	.dw	0xffff
      00003D FF FF                  496 	.dw	0xffff
      00003F 01                     497 	.db	1
      000040 00                     498 	.db	0
      000041 01                     499 	.uleb128	1
      000042 7F                     500 	.sleb128	-1
      000043 09                     501 	.db	9
      000044 0C                     502 	.db	12
      000045 08                     503 	.uleb128	8
      000046 02                     504 	.uleb128	2
      000047 89                     505 	.db	137
      000048 01                     506 	.uleb128	1
      000049                        507 Ldebug_CIE1_end:
      000049 00 00 00 75            508 	.dw	0,117
      00004D 00 00r00r37            509 	.dw	0,(Ldebug_CIE1_start-4)
      000051 00 00r00r00            510 	.dw	0,(Sjas$jas_init$1)	;initial loc
      000055 00 00 00 27            511 	.dw	0,Sjas$jas_init$22-Sjas$jas_init$1
      000059 01                     512 	.db	1
      00005A 00 00r00r00            513 	.dw	0,(Sjas$jas_init$1)
      00005E 0E                     514 	.db	14
      00005F 02                     515 	.uleb128	2
      000060 01                     516 	.db	1
      000061 00 00r00r02            517 	.dw	0,(Sjas$jas_init$3)
      000065 0E                     518 	.db	14
      000066 03                     519 	.uleb128	3
      000067 01                     520 	.db	1
      000068 00 00r00r04            521 	.dw	0,(Sjas$jas_init$4)
      00006C 0E                     522 	.db	14
      00006D 04                     523 	.uleb128	4
      00006E 01                     524 	.db	1
      00006F 00 00r00r06            525 	.dw	0,(Sjas$jas_init$5)
      000073 0E                     526 	.db	14
      000074 05                     527 	.uleb128	5
      000075 01                     528 	.db	1
      000076 00 00r00r0B            529 	.dw	0,(Sjas$jas_init$6)
      00007A 0E                     530 	.db	14
      00007B 02                     531 	.uleb128	2
      00007C 01                     532 	.db	1
      00007D 00 00r00r0D            533 	.dw	0,(Sjas$jas_init$8)
      000081 0E                     534 	.db	14
      000082 03                     535 	.uleb128	3
      000083 01                     536 	.db	1
      000084 00 00r00r0F            537 	.dw	0,(Sjas$jas_init$9)
      000088 0E                     538 	.db	14
      000089 04                     539 	.uleb128	4
      00008A 01                     540 	.db	1
      00008B 00 00r00r11            541 	.dw	0,(Sjas$jas_init$10)
      00008F 0E                     542 	.db	14
      000090 05                     543 	.uleb128	5
      000091 01                     544 	.db	1
      000092 00 00r00r13            545 	.dw	0,(Sjas$jas_init$11)
      000096 0E                     546 	.db	14
      000097 06                     547 	.uleb128	6
      000098 01                     548 	.db	1
      000099 00 00r00r15            549 	.dw	0,(Sjas$jas_init$12)
      00009D 0E                     550 	.db	14
      00009E 07                     551 	.uleb128	7
      00009F 01                     552 	.db	1
      0000A0 00 00r00r1A            553 	.dw	0,(Sjas$jas_init$13)
      0000A4 0E                     554 	.db	14
      0000A5 02                     555 	.uleb128	2
      0000A6 01                     556 	.db	1
      0000A7 00 00r00r1C            557 	.dw	0,(Sjas$jas_init$15)
      0000AB 0E                     558 	.db	14
      0000AC 03                     559 	.uleb128	3
      0000AD 01                     560 	.db	1
      0000AE 00 00r00r20            561 	.dw	0,(Sjas$jas_init$16)
      0000B2 0E                     562 	.db	14
      0000B3 02                     563 	.uleb128	2
      0000B4 01                     564 	.db	1
      0000B5 00 00r00r22            565 	.dw	0,(Sjas$jas_init$18)
      0000B9 0E                     566 	.db	14
      0000BA 03                     567 	.uleb128	3
      0000BB 01                     568 	.db	1
      0000BC 00 00r00r26            569 	.dw	0,(Sjas$jas_init$19)
      0000C0 0E                     570 	.db	14
      0000C1 02                     571 	.uleb128	2
